NUTS_number,value
0.000000000000000000e+00,0.000000000000000000e+00
1.000000000000000000e+00,0.000000000000000000e+00
2.000000000000000000e+00,0.000000000000000000e+00
3.000000000000000000e+00,0.000000000000000000e+00
4.000000000000000000e+00,1.159447000000000000e+06
5.000000000000000000e+00,0.000000000000000000e+00
6.000000000000000000e+00,0.000000000000000000e+00
7.000000000000000000e+00,1.016605000000000000e+06
8.000000000000000000e+00,3.305050000000000000e+05
9.000000000000000000e+00,4.439120000000000000e+05
1.000000000000000000e+01,0.000000000000000000e+00
1.100000000000000000e+01,4.165290000000000000e+05
1.200000000000000000e+01,2.359170000000000000e+05
1.300000000000000000e+01,1.996100000000000000e+05
1.400000000000000000e+01,0.000000000000000000e+00
1.500000000000000000e+01,2.799480000000000000e+05
1.600000000000000000e+01,1.955100000000000000e+05
1.700000000000000000e+01,8.265900000000000000e+04
1.800000000000000000e+01,5.374900000000000000e+05
1.900000000000000000e+01,1.211170000000000000e+05
2.000000000000000000e+01,2.417420000000000000e+05
2.100000000000000000e+01,0.000000000000000000e+00
2.200000000000000000e+01,6.070720000000000000e+05
2.300000000000000000e+01,4.901360000000000000e+05
2.400000000000000000e+01,0.000000000000000000e+00
2.500000000000000000e+01,2.787560000000000000e+05
2.600000000000000000e+01,5.052900000000000000e+04
2.700000000000000000e+01,1.061040000000000000e+05
2.800000000000000000e+01,2.843380000000000000e+05
2.900000000000000000e+01,1.537690000000000000e+05
3.000000000000000000e+01,1.481220000000000000e+05
3.100000000000000000e+01,9.152400000000000000e+04
3.200000000000000000e+01,6.067600000000000000e+04
3.300000000000000000e+01,0.000000000000000000e+00
3.400000000000000000e+01,0.000000000000000000e+00
3.500000000000000000e+01,3.868360000000000000e+05
3.600000000000000000e+01,0.000000000000000000e+00
3.700000000000000000e+01,8.527600000000000000e+04
3.800000000000000000e+01,4.279340000000000000e+05
3.900000000000000000e+01,2.558700000000000000e+05
4.000000000000000000e+01,7.423600000000000000e+04
4.100000000000000000e+01,1.867180000000000000e+05
4.200000000000000000e+01,1.504500000000000000e+05
4.300000000000000000e+01,1.459020000000000000e+05
4.400000000000000000e+01,0.000000000000000000e+00
4.500000000000000000e+01,1.108110000000000000e+05
4.600000000000000000e+01,6.171170000000000000e+05
4.700000000000000000e+01,7.787400000000000000e+04
4.800000000000000000e+01,2.078920000000000000e+05
4.900000000000000000e+01,7.634800000000000000e+04
5.000000000000000000e+01,0.000000000000000000e+00
5.100000000000000000e+01,5.988300000000000000e+04
5.200000000000000000e+01,4.636400000000000000e+04
5.300000000000000000e+01,5.576400000000000000e+04
5.400000000000000000e+01,6.137300000000000000e+04
5.500000000000000000e+01,5.277000000000000000e+04
5.600000000000000000e+01,0.000000000000000000e+00
5.700000000000000000e+01,1.085020000000000000e+05
5.800000000000000000e+01,3.087610000000000000e+05
5.900000000000000000e+01,6.614500000000000000e+04
6.000000000000000000e+01,0.000000000000000000e+00
6.100000000000000000e+01,0.000000000000000000e+00
6.200000000000000000e+01,0.000000000000000000e+00
6.300000000000000000e+01,0.000000000000000000e+00
6.400000000000000000e+01,0.000000000000000000e+00
6.500000000000000000e+01,0.000000000000000000e+00
6.600000000000000000e+01,9.855300000000000000e+04
6.700000000000000000e+01,1.461740000000000000e+05
6.800000000000000000e+01,1.841620000000000000e+05
6.900000000000000000e+01,2.677470000000000000e+05
7.000000000000000000e+01,1.399650000000000000e+05
7.100000000000000000e+01,0.000000000000000000e+00
7.200000000000000000e+01,2.564300000000000000e+05
7.300000000000000000e+01,1.207690000000000000e+05
7.400000000000000000e+01,2.346380000000000000e+05
7.500000000000000000e+01,1.231410000000000000e+05
7.600000000000000000e+01,1.184900000000000000e+05
7.700000000000000000e+01,0.000000000000000000e+00
7.800000000000000000e+01,4.777640000000000000e+05
7.900000000000000000e+01,1.861170000000000000e+05
8.000000000000000000e+01,1.794470000000000000e+05
8.100000000000000000e+01,1.186360000000000000e+05
8.200000000000000000e+01,0.000000000000000000e+00
8.300000000000000000e+01,4.180540000000000000e+05
8.400000000000000000e+01,1.955950000000000000e+05
8.500000000000000000e+01,1.282710000000000000e+05
8.600000000000000000e+01,3.309300000000000000e+05
8.700000000000000000e+01,0.000000000000000000e+00
8.800000000000000000e+01,0.000000000000000000e+00
8.900000000000000000e+01,1.311858000000000000e+06
9.000000000000000000e+01,2.412860000000000000e+05
9.100000000000000000e+01,3.186500000000000000e+05
9.200000000000000000e+01,1.289140000000000000e+05
9.300000000000000000e+01,1.305240000000000000e+05
9.400000000000000000e+01,0.000000000000000000e+00
9.500000000000000000e+01,6.863560000000000000e+05
9.600000000000000000e+01,2.421910000000000000e+05
9.700000000000000000e+01,2.725270000000000000e+05
9.800000000000000000e+01,1.176160000000000000e+05
9.900000000000000000e+01,1.524160000000000000e+05
1.000000000000000000e+02,0.000000000000000000e+00
1.010000000000000000e+02,0.000000000000000000e+00
1.020000000000000000e+02,0.000000000000000000e+00
1.030000000000000000e+02,0.000000000000000000e+00
1.040000000000000000e+02,0.000000000000000000e+00
1.050000000000000000e+02,0.000000000000000000e+00
1.060000000000000000e+02,1.219536000000000000e+06
1.070000000000000000e+02,0.000000000000000000e+00
1.080000000000000000e+02,1.301471000000000000e+06
1.090000000000000000e+02,0.000000000000000000e+00
1.100000000000000000e+02,6.354810000000000000e+05
1.110000000000000000e+02,5.723640000000000000e+05
1.120000000000000000e+02,0.000000000000000000e+00
1.130000000000000000e+02,3.018470000000000000e+05
1.140000000000000000e+02,8.293430000000000000e+05
1.150000000000000000e+02,0.000000000000000000e+00
1.160000000000000000e+02,4.392960000000000000e+05
1.170000000000000000e+02,5.527740000000000000e+05
1.180000000000000000e+02,5.167940000000000000e+05
1.190000000000000000e+02,0.000000000000000000e+00
1.200000000000000000e+02,5.095890000000000000e+05
1.210000000000000000e+02,1.168659000000000000e+06
1.220000000000000000e+02,0.000000000000000000e+00
1.230000000000000000e+02,6.389640000000000000e+05
1.240000000000000000e+02,5.887020000000000000e+05
1.250000000000000000e+02,0.000000000000000000e+00
1.260000000000000000e+02,1.230612000000000000e+06
1.270000000000000000e+02,0.000000000000000000e+00
1.280000000000000000e+02,0.000000000000000000e+00
1.290000000000000000e+02,0.000000000000000000e+00
1.300000000000000000e+02,0.000000000000000000e+00
1.310000000000000000e+02,0.000000000000000000e+00
1.320000000000000000e+02,0.000000000000000000e+00
1.330000000000000000e+02,7.137490000000000000e+05
1.340000000000000000e+02,5.200520000000000000e+05
1.350000000000000000e+02,4.412850000000000000e+05
1.360000000000000000e+02,3.950100000000000000e+04
1.370000000000000000e+02,0.000000000000000000e+00
1.380000000000000000e+02,2.393620000000000000e+05
1.390000000000000000e+02,5.785440000000000000e+05
1.400000000000000000e+02,0.000000000000000000e+00
1.410000000000000000e+02,4.826680000000000000e+05
1.420000000000000000e+02,7.098560000000000000e+05
1.430000000000000000e+02,0.000000000000000000e+00
1.440000000000000000e+02,4.250890000000000000e+05
1.450000000000000000e+02,8.504080000000000000e+05
1.460000000000000000e+02,0.000000000000000000e+00
1.470000000000000000e+02,5.799950000000000000e+05
1.480000000000000000e+02,0.000000000000000000e+00
1.490000000000000000e+02,0.000000000000000000e+00
1.500000000000000000e+02,0.000000000000000000e+00
1.510000000000000000e+02,0.000000000000000000e+00
1.520000000000000000e+02,0.000000000000000000e+00
1.530000000000000000e+02,0.000000000000000000e+00
1.540000000000000000e+02,5.970010000000000000e+05
1.550000000000000000e+02,3.659200000000000000e+05
1.560000000000000000e+02,5.060930000000000000e+05
1.570000000000000000e+02,2.458090000000000000e+05
1.580000000000000000e+02,5.153340000000000000e+05
1.590000000000000000e+02,4.060630000000000000e+05
1.600000000000000000e+02,1.166960000000000000e+05
1.610000000000000000e+02,3.220990000000000000e+05
1.620000000000000000e+02,1.065640000000000000e+05
1.630000000000000000e+02,1.854170000000000000e+05
1.640000000000000000e+02,1.282900000000000000e+05
1.650000000000000000e+02,1.264030000000000000e+05
1.660000000000000000e+02,3.032300000000000000e+05
1.670000000000000000e+02,0.000000000000000000e+00
1.680000000000000000e+02,5.239800000000000000e+04
1.690000000000000000e+02,2.956390000000000000e+05
1.700000000000000000e+02,4.242150000000000000e+05
1.710000000000000000e+02,2.207240000000000000e+05
1.720000000000000000e+02,1.503510000000000000e+05
1.730000000000000000e+02,2.932530000000000000e+05
1.740000000000000000e+02,1.399440000000000000e+05
1.750000000000000000e+02,5.248620000000000000e+05
1.760000000000000000e+02,1.163900000000000000e+05
1.770000000000000000e+02,1.497070000000000000e+05
1.780000000000000000e+02,1.905780000000000000e+05
1.790000000000000000e+02,1.134620000000000000e+05
1.800000000000000000e+02,0.000000000000000000e+00
1.810000000000000000e+02,2.178960000000000000e+05
1.820000000000000000e+02,2.474230000000000000e+05
1.830000000000000000e+02,1.564600000000000000e+05
1.840000000000000000e+02,4.082000000000000000e+05
1.850000000000000000e+02,1.338500000000000000e+05
1.860000000000000000e+02,2.028650000000000000e+05
1.870000000000000000e+02,1.317530000000000000e+05
1.880000000000000000e+02,2.704400000000000000e+05
1.890000000000000000e+02,2.195350000000000000e+05
1.900000000000000000e+02,1.624840000000000000e+05
1.910000000000000000e+02,0.000000000000000000e+00
1.920000000000000000e+02,2.735430000000000000e+05
1.930000000000000000e+02,2.145920000000000000e+05
1.940000000000000000e+02,1.829590000000000000e+05
1.950000000000000000e+02,1.181480000000000000e+05
1.960000000000000000e+02,1.862060000000000000e+05
1.970000000000000000e+02,1.870030000000000000e+05
1.980000000000000000e+02,2.055890000000000000e+05
1.990000000000000000e+02,2.710860000000000000e+05
2.000000000000000000e+02,1.259630000000000000e+05
2.010000000000000000e+02,0.000000000000000000e+00
2.020000000000000000e+02,0.000000000000000000e+00
2.030000000000000000e+02,1.260690000000000000e+05
2.040000000000000000e+02,1.374392000000000000e+06
2.050000000000000000e+02,5.902800000000000000e+04
2.060000000000000000e+02,1.044240000000000000e+05
2.070000000000000000e+02,9.991400000000000000e+04
2.080000000000000000e+02,1.192170000000000000e+05
2.090000000000000000e+02,1.409770000000000000e+05
2.100000000000000000e+02,1.298470000000000000e+05
2.110000000000000000e+02,1.228680000000000000e+05
2.120000000000000000e+02,1.271440000000000000e+05
2.130000000000000000e+02,1.649960000000000000e+05
2.140000000000000000e+02,2.033250000000000000e+05
2.150000000000000000e+02,8.341400000000000000e+04
2.160000000000000000e+02,1.121960000000000000e+05
2.170000000000000000e+02,9.376700000000000000e+04
2.180000000000000000e+02,1.066330000000000000e+05
2.190000000000000000e+02,3.221430000000000000e+05
2.200000000000000000e+02,9.049800000000000000e+04
2.210000000000000000e+02,1.171370000000000000e+05
2.220000000000000000e+02,2.438760000000000000e+05
2.230000000000000000e+02,1.277030000000000000e+05
2.240000000000000000e+02,1.663170000000000000e+05
2.250000000000000000e+02,1.272890000000000000e+05
2.260000000000000000e+02,0.000000000000000000e+00
2.270000000000000000e+02,6.544300000000000000e+04
2.280000000000000000e+02,4.890400000000000000e+04
2.290000000000000000e+02,4.499500000000000000e+04
2.300000000000000000e+02,1.140890000000000000e+05
2.310000000000000000e+02,7.676200000000000000e+04
2.320000000000000000e+02,1.139490000000000000e+05
2.330000000000000000e+02,1.486420000000000000e+05
2.340000000000000000e+02,1.836040000000000000e+05
2.350000000000000000e+02,7.540900000000000000e+04
2.360000000000000000e+02,1.163460000000000000e+05
2.370000000000000000e+02,9.624100000000000000e+04
2.380000000000000000e+02,9.153900000000000000e+04
2.390000000000000000e+02,0.000000000000000000e+00
2.400000000000000000e+02,4.136400000000000000e+04
2.410000000000000000e+02,1.395090000000000000e+05
2.420000000000000000e+02,4.149800000000000000e+04
2.430000000000000000e+02,1.025100000000000000e+05
2.440000000000000000e+02,1.248660000000000000e+05
2.450000000000000000e+02,1.271260000000000000e+05
2.460000000000000000e+02,9.492500000000000000e+04
2.470000000000000000e+02,1.849620000000000000e+05
2.480000000000000000e+02,1.422770000000000000e+05
2.490000000000000000e+02,7.305400000000000000e+04
2.500000000000000000e+02,0.000000000000000000e+00
2.510000000000000000e+02,7.151800000000000000e+04
2.520000000000000000e+02,7.192500000000000000e+04
2.530000000000000000e+02,4.119600000000000000e+04
2.540000000000000000e+02,4.474200000000000000e+04
2.550000000000000000e+02,1.451370000000000000e+05
2.560000000000000000e+02,1.051520000000000000e+05
2.570000000000000000e+02,8.714700000000000000e+04
2.580000000000000000e+02,1.139830000000000000e+05
2.590000000000000000e+02,9.757500000000000000e+04
2.600000000000000000e+02,6.882200000000000000e+04
2.610000000000000000e+02,7.325800000000000000e+04
2.620000000000000000e+02,6.697300000000000000e+04
2.630000000000000000e+02,7.414500000000000000e+04
2.640000000000000000e+02,0.000000000000000000e+00
2.650000000000000000e+02,3.939600000000000000e+04
2.660000000000000000e+02,1.044510000000000000e+05
2.670000000000000000e+02,1.184770000000000000e+05
2.680000000000000000e+02,4.933350000000000000e+05
2.690000000000000000e+02,3.910700000000000000e+04
2.700000000000000000e+02,1.769270000000000000e+05
2.710000000000000000e+02,1.305460000000000000e+05
2.720000000000000000e+02,1.132420000000000000e+05
2.730000000000000000e+02,1.631680000000000000e+05
2.740000000000000000e+02,9.639900000000000000e+04
2.750000000000000000e+02,1.220600000000000000e+05
2.760000000000000000e+02,9.130500000000000000e+04
2.770000000000000000e+02,0.000000000000000000e+00
2.780000000000000000e+02,6.790100000000000000e+04
2.790000000000000000e+02,5.189400000000000000e+04
2.800000000000000000e+02,1.248030000000000000e+05
2.810000000000000000e+02,1.729360000000000000e+05
2.820000000000000000e+02,1.029510000000000000e+05
2.830000000000000000e+02,8.003200000000000000e+04
2.840000000000000000e+02,8.416000000000000000e+04
2.850000000000000000e+02,8.817100000000000000e+04
2.860000000000000000e+02,1.280160000000000000e+05
2.870000000000000000e+02,1.264000000000000000e+05
2.880000000000000000e+02,1.131010000000000000e+05
2.890000000000000000e+02,1.587110000000000000e+05
2.900000000000000000e+02,0.000000000000000000e+00
2.910000000000000000e+02,2.730350000000000000e+05
2.920000000000000000e+02,4.122900000000000000e+04
2.930000000000000000e+02,6.421900000000000000e+04
2.940000000000000000e+02,4.124200000000000000e+04
2.950000000000000000e+02,1.268060000000000000e+05
2.960000000000000000e+02,2.378550000000000000e+05
2.970000000000000000e+02,9.194800000000000000e+04
2.980000000000000000e+02,1.191650000000000000e+05
2.990000000000000000e+02,1.645300000000000000e+05
3.000000000000000000e+02,7.793800000000000000e+04
3.010000000000000000e+02,1.330620000000000000e+05
3.020000000000000000e+02,1.357400000000000000e+05
3.030000000000000000e+02,1.277800000000000000e+05
3.040000000000000000e+02,1.485700000000000000e+05
3.050000000000000000e+02,0.000000000000000000e+00
3.060000000000000000e+02,0.000000000000000000e+00
3.070000000000000000e+02,3.325998000000000000e+06
3.080000000000000000e+02,0.000000000000000000e+00
3.090000000000000000e+02,0.000000000000000000e+00
3.100000000000000000e+02,7.114700000000000000e+04
3.110000000000000000e+02,9.975700000000000000e+04
3.120000000000000000e+02,5.811300000000000000e+04
3.130000000000000000e+02,1.617310000000000000e+05
3.140000000000000000e+02,1.740370000000000000e+05
3.150000000000000000e+02,1.610550000000000000e+05
3.160000000000000000e+02,1.063300000000000000e+05
3.170000000000000000e+02,1.541250000000000000e+05
3.180000000000000000e+02,1.879730000000000000e+05
3.190000000000000000e+02,2.033420000000000000e+05
3.200000000000000000e+02,1.140280000000000000e+05
3.210000000000000000e+02,1.771380000000000000e+05
3.220000000000000000e+02,9.910500000000000000e+04
3.230000000000000000e+02,2.058550000000000000e+05
3.240000000000000000e+02,7.812000000000000000e+04
3.250000000000000000e+02,1.190920000000000000e+05
3.260000000000000000e+02,1.607090000000000000e+05
3.270000000000000000e+02,1.215230000000000000e+05
3.280000000000000000e+02,0.000000000000000000e+00
3.290000000000000000e+02,0.000000000000000000e+00
3.300000000000000000e+02,5.441990000000000000e+05
3.310000000000000000e+02,1.079820000000000000e+05
3.320000000000000000e+02,0.000000000000000000e+00
3.330000000000000000e+02,0.000000000000000000e+00
3.340000000000000000e+02,1.718185000000000000e+06
3.350000000000000000e+02,0.000000000000000000e+00
3.360000000000000000e+02,0.000000000000000000e+00
3.370000000000000000e+02,1.474370000000000000e+05
3.380000000000000000e+02,6.905480000000000000e+05
3.390000000000000000e+02,1.173670000000000000e+05
3.400000000000000000e+02,2.696520000000000000e+05
3.410000000000000000e+02,2.582810000000000000e+05
3.420000000000000000e+02,2.810100000000000000e+05
3.430000000000000000e+02,2.533370000000000000e+05
3.440000000000000000e+02,2.256360000000000000e+05
3.450000000000000000e+02,3.987550000000000000e+05
3.460000000000000000e+02,2.245070000000000000e+05
3.470000000000000000e+02,9.471800000000000000e+04
3.480000000000000000e+02,3.330850000000000000e+05
3.490000000000000000e+02,1.783970000000000000e+05
3.500000000000000000e+02,2.908800000000000000e+05
3.510000000000000000e+02,0.000000000000000000e+00
3.520000000000000000e+02,2.544100000000000000e+05
3.530000000000000000e+02,2.519120000000000000e+05
3.540000000000000000e+02,1.703600000000000000e+05
3.550000000000000000e+02,2.422190000000000000e+05
3.560000000000000000e+02,1.066240000000000000e+05
3.570000000000000000e+02,0.000000000000000000e+00
3.580000000000000000e+02,1.948700000000000000e+05
3.590000000000000000e+02,2.171870000000000000e+05
3.600000000000000000e+02,1.201330000000000000e+05
3.610000000000000000e+02,2.342920000000000000e+05
3.620000000000000000e+02,1.801520000000000000e+05
3.630000000000000000e+02,2.580010000000000000e+05
3.640000000000000000e+02,1.021000000000000000e+05
3.650000000000000000e+02,0.000000000000000000e+00
3.660000000000000000e+02,0.000000000000000000e+00
3.670000000000000000e+02,2.047550000000000000e+05
3.680000000000000000e+02,9.217900000000000000e+04
3.690000000000000000e+02,2.641190000000000000e+05
3.700000000000000000e+02,2.119250000000000000e+05
3.710000000000000000e+02,2.245610000000000000e+05
3.720000000000000000e+02,1.562760000000000000e+05
3.730000000000000000e+02,2.397360000000000000e+05
3.740000000000000000e+02,2.133480000000000000e+05
3.750000000000000000e+02,0.000000000000000000e+00
3.760000000000000000e+02,0.000000000000000000e+00
3.770000000000000000e+02,2.473890000000000000e+05
3.780000000000000000e+02,9.826200000000000000e+04
3.790000000000000000e+02,1.225380000000000000e+05
3.800000000000000000e+02,1.715890000000000000e+05
3.810000000000000000e+02,2.484140000000000000e+05
3.820000000000000000e+02,1.379250000000000000e+05
3.830000000000000000e+02,9.048400000000000000e+04
3.840000000000000000e+02,1.347520000000000000e+05
3.850000000000000000e+02,7.441700000000000000e+04
3.860000000000000000e+02,1.302340000000000000e+05
3.870000000000000000e+02,1.199640000000000000e+05
3.880000000000000000e+02,0.000000000000000000e+00
3.890000000000000000e+02,2.093900000000000000e+05
3.900000000000000000e+02,1.473570000000000000e+05
3.910000000000000000e+02,2.737790000000000000e+05
3.920000000000000000e+02,7.168300000000000000e+04
3.930000000000000000e+02,1.195240000000000000e+05
3.940000000000000000e+02,1.551780000000000000e+05
3.950000000000000000e+02,1.116519000000000000e+06
3.960000000000000000e+02,0.000000000000000000e+00
3.970000000000000000e+02,1.752290000000000000e+05
3.980000000000000000e+02,1.962450000000000000e+05
3.990000000000000000e+02,2.424240000000000000e+05
4.000000000000000000e+02,4.858100000000000000e+04
4.010000000000000000e+02,1.764040000000000000e+05
4.020000000000000000e+02,1.106790000000000000e+05
4.030000000000000000e+02,1.610130000000000000e+05
4.040000000000000000e+02,1.360020000000000000e+05
4.050000000000000000e+02,1.961560000000000000e+05
4.060000000000000000e+02,9.218700000000000000e+04
4.070000000000000000e+02,1.322070000000000000e+05
4.080000000000000000e+02,0.000000000000000000e+00
4.090000000000000000e+02,7.379100000000000000e+04
4.100000000000000000e+02,4.961500000000000000e+04
4.110000000000000000e+02,1.590490000000000000e+05
4.120000000000000000e+02,1.557660000000000000e+05
4.130000000000000000e+02,7.546200000000000000e+04
4.140000000000000000e+02,1.184480000000000000e+05
4.150000000000000000e+02,1.864020000000000000e+05
4.160000000000000000e+02,1.596140000000000000e+05
4.170000000000000000e+02,3.125880000000000000e+05
4.180000000000000000e+02,9.675300000000000000e+04
4.190000000000000000e+02,1.332100000000000000e+05
4.200000000000000000e+02,1.642150000000000000e+05
4.210000000000000000e+02,1.253370000000000000e+05
4.220000000000000000e+02,3.490740000000000000e+05
4.230000000000000000e+02,1.337180000000000000e+05
4.240000000000000000e+02,8.852000000000000000e+04
4.250000000000000000e+02,5.616500000000000000e+04
4.260000000000000000e+02,0.000000000000000000e+00
4.270000000000000000e+02,0.000000000000000000e+00
4.280000000000000000e+02,5.973150000000000000e+05
4.290000000000000000e+02,4.857400000000000000e+05
4.300000000000000000e+02,5.685790000000000000e+05
4.310000000000000000e+02,2.215500000000000000e+05
4.320000000000000000e+02,2.548460000000000000e+05
4.330000000000000000e+02,1.662590000000000000e+05
4.340000000000000000e+02,2.086190000000000000e+05
4.350000000000000000e+02,1.087060000000000000e+05
4.360000000000000000e+02,1.554120000000000000e+05
4.370000000000000000e+02,3.427030000000000000e+05
4.380000000000000000e+02,3.020060000000000000e+05
4.390000000000000000e+02,4.755430000000000000e+05
4.400000000000000000e+02,4.395950000000000000e+05
4.410000000000000000e+02,2.942470000000000000e+05
4.420000000000000000e+02,4.559780000000000000e+05
4.430000000000000000e+02,0.000000000000000000e+00
4.440000000000000000e+02,3.088480000000000000e+05
4.450000000000000000e+02,1.026071000000000000e+06
4.460000000000000000e+02,1.595590000000000000e+05
4.470000000000000000e+02,2.563610000000000000e+05
4.480000000000000000e+02,4.530250000000000000e+05
4.490000000000000000e+02,1.859690000000000000e+05
4.500000000000000000e+02,2.462890000000000000e+05
4.510000000000000000e+02,2.681730000000000000e+05
4.520000000000000000e+02,2.762590000000000000e+05
4.530000000000000000e+02,5.777180000000000000e+05
4.540000000000000000e+02,5.407880000000000000e+05
4.550000000000000000e+02,0.000000000000000000e+00
4.560000000000000000e+02,1.159680000000000000e+05
4.570000000000000000e+02,2.576560000000000000e+05
4.580000000000000000e+02,2.994820000000000000e+05
4.590000000000000000e+02,3.639960000000000000e+05
4.600000000000000000e+02,2.151200000000000000e+05
4.610000000000000000e+02,6.134150000000000000e+05
4.620000000000000000e+02,4.341540000000000000e+05
4.630000000000000000e+02,2.724290000000000000e+05
4.640000000000000000e+02,0.000000000000000000e+00
4.650000000000000000e+02,3.293080000000000000e+05
4.660000000000000000e+02,3.528100000000000000e+05
4.670000000000000000e+02,2.493250000000000000e+05
4.680000000000000000e+02,1.429810000000000000e+05
4.690000000000000000e+02,3.458410000000000000e+05
4.700000000000000000e+02,3.097740000000000000e+05
4.710000000000000000e+02,2.970870000000000000e+05
4.720000000000000000e+02,0.000000000000000000e+00
4.730000000000000000e+02,3.635550000000000000e+05
4.740000000000000000e+02,5.788410000000000000e+05
4.750000000000000000e+02,1.869320000000000000e+05
4.760000000000000000e+02,1.769330000000000000e+05
4.770000000000000000e+02,1.551940000000000000e+05
4.780000000000000000e+02,3.243550000000000000e+05
4.790000000000000000e+02,2.633170000000000000e+05
4.800000000000000000e+02,4.183340000000000000e+05
4.810000000000000000e+02,1.356260000000000000e+05
4.820000000000000000e+02,2.762870000000000000e+05
4.830000000000000000e+02,2.964550000000000000e+05
4.840000000000000000e+02,3.935940000000000000e+05
4.850000000000000000e+02,0.000000000000000000e+00
4.860000000000000000e+02,0.000000000000000000e+00
4.870000000000000000e+02,1.110780000000000000e+05
4.880000000000000000e+02,1.265970000000000000e+05
4.890000000000000000e+02,1.288770000000000000e+05
4.900000000000000000e+02,1.559070000000000000e+05
4.910000000000000000e+02,8.099000000000000000e+04
4.920000000000000000e+02,6.345000000000000000e+04
4.930000000000000000e+02,2.106090000000000000e+05
4.940000000000000000e+02,1.801580000000000000e+05
4.950000000000000000e+02,1.011660000000000000e+05
4.960000000000000000e+02,1.218510000000000000e+05
4.970000000000000000e+02,1.994830000000000000e+05
4.980000000000000000e+02,0.000000000000000000e+00
4.990000000000000000e+02,1.070750000000000000e+05
5.000000000000000000e+02,1.104790000000000000e+05
5.010000000000000000e+02,9.601600000000000000e+04
5.020000000000000000e+02,6.067500000000000000e+04
5.030000000000000000e+02,1.441250000000000000e+05
5.040000000000000000e+02,0.000000000000000000e+00
5.050000000000000000e+02,4.711000000000000000e+04
5.060000000000000000e+02,9.670700000000000000e+04
5.070000000000000000e+02,4.362000000000000000e+04
5.080000000000000000e+02,1.607630000000000000e+05
5.090000000000000000e+02,2.033130000000000000e+05
5.100000000000000000e+02,5.215500000000000000e+04
5.110000000000000000e+02,3.991400000000000000e+04
5.120000000000000000e+02,4.950700000000000000e+04
5.130000000000000000e+02,7.992000000000000000e+04
5.140000000000000000e+02,3.392500000000000000e+04
5.150000000000000000e+02,1.246280000000000000e+05
5.160000000000000000e+02,1.304280000000000000e+05
5.170000000000000000e+02,7.484000000000000000e+04
5.180000000000000000e+02,1.248470000000000000e+05
5.190000000000000000e+02,1.036310000000000000e+05
5.200000000000000000e+02,7.076600000000000000e+04
5.210000000000000000e+02,1.085160000000000000e+05
5.220000000000000000e+02,1.483710000000000000e+05
5.230000000000000000e+02,2.023880000000000000e+05
5.240000000000000000e+02,9.614800000000000000e+04
5.250000000000000000e+02,0.000000000000000000e+00
5.260000000000000000e+02,0.000000000000000000e+00
5.270000000000000000e+02,3.283260000000000000e+05
5.280000000000000000e+02,1.038780000000000000e+05
5.290000000000000000e+02,1.341820000000000000e+05
5.300000000000000000e+02,1.973880000000000000e+05
5.310000000000000000e+02,1.448870000000000000e+05
5.320000000000000000e+02,8.919400000000000000e+04
5.330000000000000000e+02,0.000000000000000000e+00
5.340000000000000000e+02,0.000000000000000000e+00
5.350000000000000000e+02,5.310140000000000000e+05
5.360000000000000000e+02,3.085020000000000000e+05
5.370000000000000000e+02,2.622970000000000000e+05
5.380000000000000000e+02,2.438360000000000000e+05
5.390000000000000000e+02,2.460600000000000000e+05
5.400000000000000000e+02,0.000000000000000000e+00
5.410000000000000000e+02,2.457280000000000000e+05
5.420000000000000000e+02,3.566870000000000000e+05
5.430000000000000000e+02,3.194070000000000000e+05
5.440000000000000000e+02,2.375520000000000000e+05
5.450000000000000000e+02,3.320680000000000000e+05
5.460000000000000000e+02,0.000000000000000000e+00
5.470000000000000000e+02,5.232230000000000000e+05
5.480000000000000000e+02,2.535550000000000000e+05
5.490000000000000000e+02,1.942510000000000000e+05
5.500000000000000000e+02,0.000000000000000000e+00
5.510000000000000000e+02,0.000000000000000000e+00
5.520000000000000000e+02,8.481400000000000000e+04
5.530000000000000000e+02,2.348830000000000000e+05
5.540000000000000000e+02,2.343310000000000000e+05
5.550000000000000000e+02,8.754900000000000000e+04
5.560000000000000000e+02,1.692180000000000000e+05
5.570000000000000000e+02,9.303500000000000000e+04
5.580000000000000000e+02,1.754330000000000000e+05
5.590000000000000000e+02,1.876060000000000000e+05
5.600000000000000000e+02,2.242100000000000000e+05
5.610000000000000000e+02,1.452990000000000000e+05
5.620000000000000000e+02,1.903790000000000000e+05
5.630000000000000000e+02,2.015620000000000000e+05
5.640000000000000000e+02,1.171250000000000000e+05
5.650000000000000000e+02,1.312920000000000000e+05
5.660000000000000000e+02,0.000000000000000000e+00
5.670000000000000000e+02,0.000000000000000000e+00
5.680000000000000000e+02,8.356300000000000000e+04
5.690000000000000000e+02,2.403590000000000000e+05
5.700000000000000000e+02,2.119220000000000000e+05
5.710000000000000000e+02,7.668300000000000000e+04
5.720000000000000000e+02,1.320200000000000000e+05
5.730000000000000000e+02,1.881240000000000000e+05
5.740000000000000000e+02,1.611360000000000000e+05
5.750000000000000000e+02,1.968730000000000000e+05
5.760000000000000000e+02,2.997590000000000000e+05
5.770000000000000000e+02,1.260270000000000000e+05
5.780000000000000000e+02,2.667720000000000000e+05
5.790000000000000000e+02,1.941860000000000000e+05
5.800000000000000000e+02,2.619220000000000000e+05
5.810000000000000000e+02,1.293850000000000000e+05
5.820000000000000000e+02,2.335350000000000000e+05
5.830000000000000000e+02,0.000000000000000000e+00
5.840000000000000000e+02,0.000000000000000000e+00
5.850000000000000000e+02,2.068490000000000000e+05
5.860000000000000000e+02,9.589000000000000000e+04
5.870000000000000000e+02,1.087130000000000000e+05
5.880000000000000000e+02,3.600800000000000000e+04
5.890000000000000000e+02,6.392400000000000000e+04
5.900000000000000000e+02,1.019210000000000000e+05
5.910000000000000000e+02,8.620000000000000000e+04
5.920000000000000000e+02,1.052470000000000000e+05
5.930000000000000000e+02,7.840200000000000000e+04
5.940000000000000000e+02,1.267810000000000000e+05
5.950000000000000000e+02,1.364540000000000000e+05
5.960000000000000000e+02,7.151300000000000000e+04
5.970000000000000000e+02,6.565700000000000000e+04
5.980000000000000000e+02,1.100050000000000000e+05
5.990000000000000000e+02,8.248900000000000000e+04
6.000000000000000000e+02,5.780200000000000000e+04
6.010000000000000000e+02,1.113670000000000000e+05
6.020000000000000000e+02,8.480800000000000000e+04
6.030000000000000000e+02,8.445700000000000000e+04
6.040000000000000000e+02,1.031490000000000000e+05
6.050000000000000000e+02,9.450500000000000000e+04
6.060000000000000000e+02,4.196600000000000000e+04
6.070000000000000000e+02,1.274960000000000000e+05
6.080000000000000000e+02,0.000000000000000000e+00
6.090000000000000000e+02,0.000000000000000000e+00
6.100000000000000000e+02,0.000000000000000000e+00
6.110000000000000000e+02,0.000000000000000000e+00
6.120000000000000000e+02,0.000000000000000000e+00
6.130000000000000000e+02,0.000000000000000000e+00
6.140000000000000000e+02,5.761890000000000000e+05
6.150000000000000000e+02,1.485500000000000000e+05
6.160000000000000000e+02,1.255750000000000000e+05
6.170000000000000000e+02,1.505510000000000000e+05
6.180000000000000000e+02,3.243510000000000000e+05
6.190000000000000000e+02,0.000000000000000000e+00
6.200000000000000000e+02,0.000000000000000000e+00
6.210000000000000000e+02,0.000000000000000000e+00
6.220000000000000000e+02,0.000000000000000000e+00
6.230000000000000000e+02,0.000000000000000000e+00
6.240000000000000000e+02,0.000000000000000000e+00
6.250000000000000000e+02,5.068690000000000000e+05
6.260000000000000000e+02,2.910240000000000000e+05
6.270000000000000000e+02,4.386340000000000000e+05
6.280000000000000000e+02,0.000000000000000000e+00
6.290000000000000000e+02,1.261550000000000000e+06
6.300000000000000000e+02,5.411220000000000000e+05
6.310000000000000000e+02,3.752060000000000000e+05
6.320000000000000000e+02,5.009270000000000000e+05
6.330000000000000000e+02,6.673690000000000000e+05
6.340000000000000000e+02,0.000000000000000000e+00
6.350000000000000000e+02,0.000000000000000000e+00
6.360000000000000000e+02,0.000000000000000000e+00
6.370000000000000000e+02,0.000000000000000000e+00
6.380000000000000000e+02,0.000000000000000000e+00
6.390000000000000000e+02,0.000000000000000000e+00
6.400000000000000000e+02,6.184980000000000000e+05
6.410000000000000000e+02,5.049300000000000000e+05
6.420000000000000000e+02,1.011830000000000000e+06
6.430000000000000000e+02,5.532010000000000000e+05
6.440000000000000000e+02,5.590840000000000000e+05
6.450000000000000000e+02,1.784210000000000000e+05
6.460000000000000000e+02,5.379170000000000000e+05
6.470000000000000000e+02,0.000000000000000000e+00
6.480000000000000000e+02,0.000000000000000000e+00
6.490000000000000000e+02,1.035660000000000000e+05
6.500000000000000000e+02,4.306500000000000000e+04
6.510000000000000000e+02,5.396000000000000000e+04
6.520000000000000000e+02,0.000000000000000000e+00
6.530000000000000000e+02,2.074200000000000000e+05
6.540000000000000000e+02,1.273600000000000000e+05
6.550000000000000000e+02,0.000000000000000000e+00
6.560000000000000000e+02,3.096120000000000000e+05
6.570000000000000000e+02,7.500700000000000000e+04
6.580000000000000000e+02,8.678600000000000000e+04
6.590000000000000000e+02,1.579620000000000000e+05
6.600000000000000000e+02,0.000000000000000000e+00
6.610000000000000000e+02,0.000000000000000000e+00
6.620000000000000000e+02,1.489130000000000000e+05
6.630000000000000000e+02,1.133490000000000000e+05
6.640000000000000000e+02,1.134110000000000000e+05
6.650000000000000000e+02,9.837800000000000000e+04
6.660000000000000000e+02,1.380230000000000000e+05
6.670000000000000000e+02,0.000000000000000000e+00
6.680000000000000000e+02,1.439990000000000000e+05
6.690000000000000000e+02,1.135025000000000000e+06
6.700000000000000000e+02,8.183500000000000000e+04
6.710000000000000000e+02,1.419130000000000000e+05
6.720000000000000000e+02,1.320490000000000000e+05
6.730000000000000000e+02,1.764500000000000000e+05
6.740000000000000000e+02,1.113180000000000000e+05
6.750000000000000000e+02,0.000000000000000000e+00
6.760000000000000000e+02,1.817820000000000000e+05
6.770000000000000000e+02,5.024000000000000000e+04
6.780000000000000000e+02,5.203900000000000000e+04
6.790000000000000000e+02,0.000000000000000000e+00
6.800000000000000000e+02,1.274470000000000000e+05
6.810000000000000000e+02,4.556300000000000000e+04
6.820000000000000000e+02,1.724270000000000000e+05
6.830000000000000000e+02,0.000000000000000000e+00
6.840000000000000000e+02,0.000000000000000000e+00
6.850000000000000000e+02,2.464540000000000000e+05
6.860000000000000000e+02,2.897700000000000000e+05
6.870000000000000000e+02,2.084380000000000000e+05
6.880000000000000000e+02,0.000000000000000000e+00
6.890000000000000000e+02,4.091600000000000000e+04
6.900000000000000000e+02,1.054110000000000000e+05
6.910000000000000000e+02,3.967400000000000000e+04
6.920000000000000000e+02,2.430700000000000000e+04
6.930000000000000000e+02,0.000000000000000000e+00
6.940000000000000000e+02,2.124880000000000000e+05
6.950000000000000000e+02,3.140490000000000000e+05
6.960000000000000000e+02,1.613980000000000000e+05
6.970000000000000000e+02,0.000000000000000000e+00
6.980000000000000000e+02,1.210530000000000000e+05
6.990000000000000000e+02,2.159890000000000000e+05
7.000000000000000000e+02,2.000400000000000000e+04
7.010000000000000000e+02,1.624880000000000000e+05
7.020000000000000000e+02,4.213600000000000000e+04
7.030000000000000000e+02,0.000000000000000000e+00
7.040000000000000000e+02,1.852440000000000000e+05
7.050000000000000000e+02,1.497750000000000000e+05
7.060000000000000000e+02,2.540250000000000000e+05
7.070000000000000000e+02,0.000000000000000000e+00
7.080000000000000000e+02,0.000000000000000000e+00
7.090000000000000000e+02,0.000000000000000000e+00
7.100000000000000000e+02,0.000000000000000000e+00
7.110000000000000000e+02,0.000000000000000000e+00
7.120000000000000000e+02,0.000000000000000000e+00
7.130000000000000000e+02,1.143514000000000000e+06
7.140000000000000000e+02,3.448940000000000000e+05
7.150000000000000000e+02,3.246930000000000000e+05
7.160000000000000000e+02,9.588130000000000000e+05
7.170000000000000000e+02,0.000000000000000000e+00
7.180000000000000000e+02,1.069753000000000000e+06
7.190000000000000000e+02,0.000000000000000000e+00
7.200000000000000000e+02,5.969360000000000000e+05
7.210000000000000000e+02,0.000000000000000000e+00
7.220000000000000000e+02,0.000000000000000000e+00
7.230000000000000000e+02,3.224820000000000000e+05
7.240000000000000000e+02,7.127020000000000000e+05
7.250000000000000000e+02,1.149510000000000000e+06
7.260000000000000000e+02,0.000000000000000000e+00
7.270000000000000000e+02,6.400130000000000000e+05
7.280000000000000000e+02,0.000000000000000000e+00
7.290000000000000000e+02,3.209510000000000000e+05
7.300000000000000000e+02,0.000000000000000000e+00
7.310000000000000000e+02,2.254560000000000000e+05
7.320000000000000000e+02,1.407000000000000000e+05
7.330000000000000000e+02,9.776500000000000000e+05
7.340000000000000000e+02,0.000000000000000000e+00
7.350000000000000000e+02,0.000000000000000000e+00
7.360000000000000000e+02,6.425515000000000000e+06
7.370000000000000000e+02,0.000000000000000000e+00
7.380000000000000000e+02,0.000000000000000000e+00
7.390000000000000000e+02,1.701460000000000000e+05
7.400000000000000000e+02,3.714420000000000000e+05
7.410000000000000000e+02,4.926830000000000000e+05
7.420000000000000000e+02,1.701160000000000000e+05
7.430000000000000000e+02,3.501900000000000000e+05
7.440000000000000000e+02,1.618040000000000000e+05
7.450000000000000000e+02,9.418900000000000000e+04
7.460000000000000000e+02,5.375730000000000000e+05
7.470000000000000000e+02,1.895400000000000000e+05
7.480000000000000000e+02,0.000000000000000000e+00
7.490000000000000000e+02,4.025600000000000000e+05
7.500000000000000000e+02,5.257230000000000000e+05
7.510000000000000000e+02,2.117530000000000000e+05
7.520000000000000000e+02,2.590200000000000000e+05
7.530000000000000000e+02,7.068770000000000000e+05
7.540000000000000000e+02,0.000000000000000000e+00
7.550000000000000000e+02,6.936170000000000000e+05
7.560000000000000000e+02,4.107180000000000000e+05
7.570000000000000000e+02,0.000000000000000000e+00
7.580000000000000000e+02,0.000000000000000000e+00
7.590000000000000000e+02,5.518123000000000000e+06
7.600000000000000000e+02,7.530180000000000000e+05
7.610000000000000000e+02,4.379230000000000000e+05
7.620000000000000000e+02,8.059190000000000000e+05
7.630000000000000000e+02,0.000000000000000000e+00
7.640000000000000000e+02,1.870494000000000000e+06
7.650000000000000000e+02,5.844210000000000000e+05
7.660000000000000000e+02,2.554729000000000000e+06
7.670000000000000000e+02,0.000000000000000000e+00
7.680000000000000000e+02,1.508210000000000000e+05
7.690000000000000000e+02,8.573260000000000000e+05
7.700000000000000000e+02,9.256700000000000000e+04
7.710000000000000000e+02,0.000000000000000000e+00
7.720000000000000000e+02,0.000000000000000000e+00
7.730000000000000000e+02,6.879780000000000000e+05
7.740000000000000000e+02,1.245905000000000000e+06
7.750000000000000000e+02,7.967160000000000000e+05
7.760000000000000000e+02,9.192690000000000000e+05
7.770000000000000000e+02,5.207390000000000000e+05
7.780000000000000000e+02,6.552650000000000000e+05
7.790000000000000000e+02,1.617574000000000000e+06
7.800000000000000000e+02,1.934354000000000000e+06
7.810000000000000000e+02,0.000000000000000000e+00
7.820000000000000000e+02,1.461923000000000000e+06
7.830000000000000000e+02,0.000000000000000000e+00
7.840000000000000000e+02,8.384500000000000000e+04
7.850000000000000000e+02,0.000000000000000000e+00
7.860000000000000000e+02,8.179200000000000000e+04
7.870000000000000000e+02,0.000000000000000000e+00
7.880000000000000000e+02,0.000000000000000000e+00
7.890000000000000000e+02,1.045800000000000000e+04
7.900000000000000000e+02,1.061270000000000000e+05
7.910000000000000000e+02,8.414800000000000000e+05
7.920000000000000000e+02,2.087800000000000000e+04
7.930000000000000000e+02,8.272500000000000000e+04
7.940000000000000000e+02,1.380550000000000000e+05
7.950000000000000000e+02,8.862130000000000000e+05
7.960000000000000000e+02,0.000000000000000000e+00
7.970000000000000000e+02,0.000000000000000000e+00
7.980000000000000000e+02,0.000000000000000000e+00
7.990000000000000000e+02,0.000000000000000000e+00
8.000000000000000000e+02,0.000000000000000000e+00
8.010000000000000000e+02,0.000000000000000000e+00
8.020000000000000000e+02,2.202228000000000000e+06
8.030000000000000000e+02,1.364744000000000000e+06
8.040000000000000000e+02,1.407803000000000000e+06
8.050000000000000000e+02,1.254387000000000000e+06
8.060000000000000000e+02,1.581749000000000000e+06
8.070000000000000000e+02,1.547547000000000000e+06
8.080000000000000000e+02,1.349336000000000000e+06
8.090000000000000000e+02,1.190695000000000000e+06
8.100000000000000000e+02,0.000000000000000000e+00
8.110000000000000000e+02,0.000000000000000000e+00
8.120000000000000000e+02,2.799430000000000000e+05
8.130000000000000000e+02,3.073200000000000000e+05
8.140000000000000000e+02,5.714600000000000000e+05
8.150000000000000000e+02,1.805460000000000000e+05
8.160000000000000000e+02,0.000000000000000000e+00
8.170000000000000000e+02,5.378670000000000000e+05
8.180000000000000000e+02,8.167630000000000000e+05
8.190000000000000000e+02,5.700800000000000000e+05
8.200000000000000000e+02,0.000000000000000000e+00
8.210000000000000000e+02,5.943120000000000000e+05
8.220000000000000000e+02,1.248862000000000000e+06
8.230000000000000000e+02,0.000000000000000000e+00
8.240000000000000000e+02,3.101640000000000000e+05
8.250000000000000000e+02,4.318450000000000000e+05
8.260000000000000000e+02,2.256620000000000000e+05
8.270000000000000000e+02,6.001020000000000000e+05
8.280000000000000000e+02,3.307330000000000000e+05
8.290000000000000000e+02,6.650780000000000000e+05
8.300000000000000000e+02,0.000000000000000000e+00
8.310000000000000000e+02,6.907120000000000000e+05
8.320000000000000000e+02,4.993080000000000000e+05
8.330000000000000000e+02,2.871870000000000000e+05
8.340000000000000000e+02,0.000000000000000000e+00
8.350000000000000000e+02,5.309360000000000000e+05
8.360000000000000000e+02,2.135490000000000000e+05
8.370000000000000000e+02,5.555620000000000000e+05
8.380000000000000000e+02,3.410810000000000000e+05
8.390000000000000000e+02,0.000000000000000000e+00
8.400000000000000000e+02,0.000000000000000000e+00
8.410000000000000000e+02,2.590953000000000000e+06
8.420000000000000000e+02,1.459798000000000000e+06
8.430000000000000000e+02,0.000000000000000000e+00
8.440000000000000000e+02,0.000000000000000000e+00
8.450000000000000000e+02,7.326850000000000000e+05
8.460000000000000000e+02,1.919890000000000000e+05
8.470000000000000000e+02,1.050328000000000000e+06
8.480000000000000000e+02,3.748120000000000000e+05
8.490000000000000000e+02,0.000000000000000000e+00
8.500000000000000000e+02,1.104788000000000000e+06
8.510000000000000000e+02,7.550790000000000000e+05
8.520000000000000000e+02,0.000000000000000000e+00
8.530000000000000000e+02,5.338480000000000000e+05
8.540000000000000000e+02,2.593630000000000000e+05
8.550000000000000000e+02,2.380840000000000000e+05
8.560000000000000000e+02,1.443880000000000000e+05
8.570000000000000000e+02,0.000000000000000000e+00
8.580000000000000000e+02,0.000000000000000000e+00
8.590000000000000000e+02,1.323216000000000000e+06
8.600000000000000000e+02,7.926360000000000000e+05
8.610000000000000000e+02,3.031240000000000000e+05
8.620000000000000000e+02,5.618610000000000000e+05
8.630000000000000000e+02,6.517730000000000000e+05
8.640000000000000000e+02,0.000000000000000000e+00
8.650000000000000000e+02,5.910160000000000000e+05
8.660000000000000000e+02,8.947560000000000000e+05
8.670000000000000000e+02,1.017710000000000000e+06
8.680000000000000000e+02,7.336110000000000000e+05
8.690000000000000000e+02,0.000000000000000000e+00
8.700000000000000000e+02,3.518570000000000000e+05
8.710000000000000000e+02,6.324980000000000000e+05
8.720000000000000000e+02,3.698600000000000000e+05
8.730000000000000000e+02,4.297750000000000000e+05
8.740000000000000000e+02,0.000000000000000000e+00
8.750000000000000000e+02,0.000000000000000000e+00
8.760000000000000000e+02,4.103270000000000000e+05
8.770000000000000000e+02,1.497853000000000000e+06
8.780000000000000000e+02,3.943670000000000000e+05
8.790000000000000000e+02,3.278680000000000000e+05
8.800000000000000000e+02,6.555520000000000000e+05
8.810000000000000000e+02,0.000000000000000000e+00
8.820000000000000000e+02,1.502730000000000000e+05
8.830000000000000000e+02,2.730510000000000000e+05
8.840000000000000000e+02,1.294362000000000000e+06
8.850000000000000000e+02,1.876960000000000000e+05
8.860000000000000000e+02,1.704710000000000000e+05
8.870000000000000000e+02,2.246570000000000000e+05
8.880000000000000000e+02,3.774160000000000000e+05
8.890000000000000000e+02,2.486650000000000000e+05
8.900000000000000000e+02,0.000000000000000000e+00
8.910000000000000000e+02,2.407490000000000000e+05
8.920000000000000000e+02,1.206680000000000000e+05
8.930000000000000000e+02,3.772160000000000000e+05
8.940000000000000000e+02,0.000000000000000000e+00
8.950000000000000000e+02,0.000000000000000000e+00
8.960000000000000000e+02,6.157990000000000000e+05
8.970000000000000000e+02,3.162760000000000000e+05
8.980000000000000000e+02,4.892130000000000000e+05
8.990000000000000000e+02,1.222536000000000000e+06
9.000000000000000000e+02,7.456610000000000000e+05
9.010000000000000000e+02,1.766031000000000000e+06
9.020000000000000000e+02,4.189390000000000000e+05
9.030000000000000000e+02,7.666980000000000000e+05
9.040000000000000000e+02,0.000000000000000000e+00
9.050000000000000000e+02,3.418350000000000000e+05
9.060000000000000000e+02,1.460040000000000000e+05
9.070000000000000000e+02,2.257520000000000000e+05
9.080000000000000000e+02,6.405120000000000000e+05
9.090000000000000000e+02,0.000000000000000000e+00
9.100000000000000000e+02,0.000000000000000000e+00
9.110000000000000000e+02,3.595070000000000000e+05
9.120000000000000000e+02,7.248210000000000000e+05
9.130000000000000000e+02,1.083982000000000000e+06
9.140000000000000000e+02,7.472500000000000000e+04
9.150000000000000000e+02,4.572280000000000000e+05
9.160000000000000000e+02,0.000000000000000000e+00
9.170000000000000000e+02,1.613310000000000000e+05
9.180000000000000000e+02,1.390140000000000000e+05
9.190000000000000000e+02,1.073470000000000000e+06
9.200000000000000000e+02,1.985951000000000000e+06
9.210000000000000000e+02,1.027495000000000000e+06
9.220000000000000000e+02,5.483100000000000000e+05
9.230000000000000000e+02,0.000000000000000000e+00
9.240000000000000000e+02,1.475840000000000000e+05
9.250000000000000000e+02,1.686730000000000000e+05
9.260000000000000000e+02,0.000000000000000000e+00
9.270000000000000000e+02,0.000000000000000000e+00
9.280000000000000000e+02,0.000000000000000000e+00
9.290000000000000000e+02,0.000000000000000000e+00
9.300000000000000000e+02,0.000000000000000000e+00
9.310000000000000000e+02,0.000000000000000000e+00
9.320000000000000000e+02,0.000000000000000000e+00
9.330000000000000000e+02,0.000000000000000000e+00
9.340000000000000000e+02,0.000000000000000000e+00
9.350000000000000000e+02,0.000000000000000000e+00
9.360000000000000000e+02,0.000000000000000000e+00
9.370000000000000000e+02,0.000000000000000000e+00
9.380000000000000000e+02,0.000000000000000000e+00
9.390000000000000000e+02,0.000000000000000000e+00
9.400000000000000000e+02,0.000000000000000000e+00
9.410000000000000000e+02,0.000000000000000000e+00
9.420000000000000000e+02,0.000000000000000000e+00
9.430000000000000000e+02,2.963150000000000000e+05
9.440000000000000000e+02,4.931300000000000000e+04
9.450000000000000000e+02,1.728230000000000000e+05
9.460000000000000000e+02,1.065470000000000000e+05
9.470000000000000000e+02,4.581760000000000000e+05
9.480000000000000000e+02,2.093230000000000000e+05
9.490000000000000000e+02,1.230680000000000000e+05
9.500000000000000000e+02,0.000000000000000000e+00
9.510000000000000000e+02,8.023400000000000000e+05
9.520000000000000000e+02,3.208690000000000000e+05
9.530000000000000000e+02,1.314070000000000000e+05
9.540000000000000000e+02,1.751700000000000000e+05
9.550000000000000000e+02,1.148730000000000000e+05
9.560000000000000000e+02,1.140620000000000000e+05
9.570000000000000000e+02,1.169570000000000000e+05
9.580000000000000000e+02,8.317900000000000000e+04
9.590000000000000000e+02,7.596400000000000000e+04
9.600000000000000000e+02,1.560510000000000000e+05
9.610000000000000000e+02,3.017730000000000000e+05
9.620000000000000000e+02,1.757920000000000000e+05
9.630000000000000000e+02,1.256770000000000000e+05
9.640000000000000000e+02,1.663030000000000000e+05
9.650000000000000000e+02,0.000000000000000000e+00
9.660000000000000000e+02,0.000000000000000000e+00
9.670000000000000000e+02,0.000000000000000000e+00
9.680000000000000000e+02,0.000000000000000000e+00
9.690000000000000000e+02,0.000000000000000000e+00
9.700000000000000000e+02,0.000000000000000000e+00
9.710000000000000000e+02,2.256928000000000000e+06
9.720000000000000000e+02,1.739500000000000000e+05
9.730000000000000000e+02,1.790730000000000000e+05
9.740000000000000000e+02,1.585330000000000000e+05
9.750000000000000000e+02,3.650570000000000000e+05
9.760000000000000000e+02,5.817990000000000000e+05
9.770000000000000000e+02,2.160650000000000000e+05
9.780000000000000000e+02,4.262540000000000000e+05
9.790000000000000000e+02,0.000000000000000000e+00
9.800000000000000000e+02,1.266200000000000000e+05
9.810000000000000000e+02,0.000000000000000000e+00
9.820000000000000000e+02,2.125980000000000000e+05
9.830000000000000000e+02,2.771580000000000000e+05
9.840000000000000000e+02,8.476910000000000000e+05
9.850000000000000000e+02,2.171640000000000000e+05
9.860000000000000000e+02,0.000000000000000000e+00
9.870000000000000000e+02,8.648650000000000000e+05
9.880000000000000000e+02,5.832110000000000000e+05
9.890000000000000000e+02,3.319360000000000000e+05
9.900000000000000000e+02,1.777270000000000000e+05
9.910000000000000000e+02,1.078594000000000000e+06
9.920000000000000000e+02,1.229414000000000000e+06
9.930000000000000000e+02,5.340420000000000000e+05
9.940000000000000000e+02,2.231150000000000000e+05
9.950000000000000000e+02,3.527080000000000000e+05
9.960000000000000000e+02,4.043330000000000000e+05
9.970000000000000000e+02,3.093442000000000000e+06
9.980000000000000000e+02,8.402120000000000000e+05
9.990000000000000000e+02,0.000000000000000000e+00
1.000000000000000000e+03,0.000000000000000000e+00
1.001000000000000000e+03,3.003730000000000000e+05
1.002000000000000000e+03,3.046840000000000000e+05
1.003000000000000000e+03,3.157480000000000000e+05
1.004000000000000000e+03,3.856110000000000000e+05
1.005000000000000000e+03,0.000000000000000000e+00
1.006000000000000000e+03,8.680500000000000000e+04
1.007000000000000000e+03,2.263400000000000000e+05
1.008000000000000000e+03,0.000000000000000000e+00
1.009000000000000000e+03,9.065140000000000000e+05
1.010000000000000000e+03,2.786600000000000000e+05
1.011000000000000000e+03,3.071146000000000000e+06
1.012000000000000000e+03,4.224780000000000000e+05
1.013000000000000000e+03,1.085620000000000000e+06
1.014000000000000000e+03,0.000000000000000000e+00
1.015000000000000000e+03,5.844800000000000000e+05
1.016000000000000000e+03,3.977060000000000000e+05
1.017000000000000000e+03,7.993240000000000000e+05
1.018000000000000000e+03,6.291010000000000000e+05
1.019000000000000000e+03,1.249565000000000000e+06
1.020000000000000000e+03,3.898920000000000000e+05
1.021000000000000000e+03,0.000000000000000000e+00
1.022000000000000000e+03,3.767170000000000000e+05
1.023000000000000000e+03,2.008450000000000000e+05
1.024000000000000000e+03,0.000000000000000000e+00
1.025000000000000000e+03,7.113110000000000000e+05
1.026000000000000000e+03,1.721240000000000000e+05
1.027000000000000000e+03,3.599140000000000000e+05
1.028000000000000000e+03,1.615570000000000000e+05
1.029000000000000000e+03,5.535100000000000000e+05
1.030000000000000000e+03,0.000000000000000000e+00
1.031000000000000000e+03,0.000000000000000000e+00
1.032000000000000000e+03,4.280100000000000000e+05
1.033000000000000000e+03,1.251790000000000000e+06
1.034000000000000000e+03,6.362700000000000000e+05
1.035000000000000000e+03,4.404550000000000000e+05
1.036000000000000000e+03,2.696040000000000000e+05
1.037000000000000000e+03,1.692370000000000000e+05
1.038000000000000000e+03,1.094878000000000000e+06
1.039000000000000000e+03,3.123090000000000000e+05
1.040000000000000000e+03,3.972970000000000000e+05
1.041000000000000000e+03,0.000000000000000000e+00
1.042000000000000000e+03,3.298580000000000000e+05
1.043000000000000000e+03,1.564940000000000000e+05
1.044000000000000000e+03,5.520560000000000000e+05
1.045000000000000000e+03,1.609540000000000000e+05
1.046000000000000000e+03,1.560390000000000000e+05
1.047000000000000000e+03,5.679600000000000000e+04
1.048000000000000000e+03,9.910000000000000000e+04
1.049000000000000000e+03,1.265480000000000000e+05
1.050000000000000000e+03,0.000000000000000000e+00
1.051000000000000000e+03,0.000000000000000000e+00
1.052000000000000000e+03,5.047070000000000000e+05
1.053000000000000000e+03,0.000000000000000000e+00
1.054000000000000000e+03,5.248760000000000000e+05
1.055000000000000000e+03,0.000000000000000000e+00
1.056000000000000000e+03,9.080290000000000000e+05
1.057000000000000000e+03,8.568960000000000000e+05
1.058000000000000000e+03,2.063210000000000000e+05
1.059000000000000000e+03,8.745430000000000000e+05
1.060000000000000000e+03,8.451050000000000000e+05
1.061000000000000000e+03,9.223330000000000000e+05
1.062000000000000000e+03,2.404250000000000000e+05
1.063000000000000000e+03,0.000000000000000000e+00
1.064000000000000000e+03,3.116800000000000000e+05
1.065000000000000000e+03,5.328740000000000000e+05
1.066000000000000000e+03,1.397470000000000000e+05
1.067000000000000000e+03,2.334780000000000000e+05
1.068000000000000000e+03,0.000000000000000000e+00
1.069000000000000000e+03,2.816630000000000000e+05
1.070000000000000000e+03,4.326990000000000000e+05
1.071000000000000000e+03,5.216260000000000000e+05
1.072000000000000000e+03,6.843460000000000000e+05
1.073000000000000000e+03,9.775000000000000000e+05
1.074000000000000000e+03,3.467060000000000000e+05
1.075000000000000000e+03,3.830820000000000000e+05
1.076000000000000000e+03,3.872590000000000000e+05
1.077000000000000000e+03,3.263560000000000000e+05
1.078000000000000000e+03,0.000000000000000000e+00
1.079000000000000000e+03,0.000000000000000000e+00
1.080000000000000000e+03,1.959060000000000000e+05
1.081000000000000000e+03,3.858950000000000000e+05
1.082000000000000000e+03,2.853510000000000000e+05
1.083000000000000000e+03,9.850300000000000000e+05
1.084000000000000000e+03,2.476580000000000000e+05
1.085000000000000000e+03,3.329590000000000000e+05
1.086000000000000000e+03,4.109820000000000000e+05
1.087000000000000000e+03,3.390130000000000000e+05
1.088000000000000000e+03,2.648430000000000000e+05
1.089000000000000000e+03,2.201420000000000000e+05
1.090000000000000000e+03,0.000000000000000000e+00
1.091000000000000000e+03,6.551820000000000000e+05
1.092000000000000000e+03,2.280320000000000000e+05
1.093000000000000000e+03,0.000000000000000000e+00
1.094000000000000000e+03,3.614640000000000000e+05
1.095000000000000000e+03,4.754320000000000000e+05
1.096000000000000000e+03,3.187380000000000000e+05
1.097000000000000000e+03,2.100580000000000000e+05
1.098000000000000000e+03,1.749950000000000000e+05
1.099000000000000000e+03,0.000000000000000000e+00
1.100000000000000000e+03,3.018650000000000000e+05
1.101000000000000000e+03,1.495950000000000000e+05
1.102000000000000000e+03,4.048574000000000000e+06
1.103000000000000000e+03,5.337180000000000000e+05
1.104000000000000000e+03,4.662640000000000000e+05
1.105000000000000000e+03,0.000000000000000000e+00
1.106000000000000000e+03,0.000000000000000000e+00
1.107000000000000000e+03,0.000000000000000000e+00
1.108000000000000000e+03,0.000000000000000000e+00
1.109000000000000000e+03,0.000000000000000000e+00
1.110000000000000000e+03,0.000000000000000000e+00
1.111000000000000000e+03,8.620100000000000000e+05
1.112000000000000000e+03,0.000000000000000000e+00
1.113000000000000000e+03,0.000000000000000000e+00
1.114000000000000000e+03,0.000000000000000000e+00
1.115000000000000000e+03,0.000000000000000000e+00
1.116000000000000000e+03,0.000000000000000000e+00
1.117000000000000000e+03,0.000000000000000000e+00
1.118000000000000000e+03,2.636220000000000000e+05
1.119000000000000000e+03,2.924370000000000000e+05
1.120000000000000000e+03,6.573010000000000000e+05
1.121000000000000000e+03,3.749880000000000000e+05
1.122000000000000000e+03,2.062880000000000000e+05
1.123000000000000000e+03,2.501760000000000000e+05
1.124000000000000000e+03,0.000000000000000000e+00
1.125000000000000000e+03,0.000000000000000000e+00
1.126000000000000000e+03,0.000000000000000000e+00
1.127000000000000000e+03,0.000000000000000000e+00
1.128000000000000000e+03,0.000000000000000000e+00
1.129000000000000000e+03,0.000000000000000000e+00
1.130000000000000000e+03,1.529150000000000000e+05
1.131000000000000000e+03,5.992440000000000000e+05
1.132000000000000000e+03,3.357400000000000000e+05
1.133000000000000000e+03,1.572350000000000000e+05
1.134000000000000000e+03,2.436300000000000000e+05
1.135000000000000000e+03,2.916060000000000000e+05
1.136000000000000000e+03,1.067620000000000000e+05
1.137000000000000000e+03,1.484570000000000000e+05
1.138000000000000000e+03,1.454800000000000000e+05
1.139000000000000000e+03,8.225700000000000000e+05
1.140000000000000000e+03,0.000000000000000000e+00
1.141000000000000000e+03,0.000000000000000000e+00
1.142000000000000000e+03,0.000000000000000000e+00
1.143000000000000000e+03,0.000000000000000000e+00
1.144000000000000000e+03,0.000000000000000000e+00
1.145000000000000000e+03,0.000000000000000000e+00
1.146000000000000000e+03,5.248520000000000000e+05
1.147000000000000000e+03,0.000000000000000000e+00
1.148000000000000000e+03,0.000000000000000000e+00
1.149000000000000000e+03,0.000000000000000000e+00
1.150000000000000000e+03,0.000000000000000000e+00
1.151000000000000000e+03,0.000000000000000000e+00
1.152000000000000000e+03,0.000000000000000000e+00
1.153000000000000000e+03,1.730192000000000000e+06
1.154000000000000000e+03,1.210623000000000000e+06
1.155000000000000000e+03,0.000000000000000000e+00
1.156000000000000000e+03,0.000000000000000000e+00
1.157000000000000000e+03,4.160270000000000000e+05
1.158000000000000000e+03,2.981830000000000000e+05
1.159000000000000000e+03,3.461120000000000000e+05
1.160000000000000000e+03,0.000000000000000000e+00
1.161000000000000000e+03,4.590740000000000000e+05
1.162000000000000000e+03,2.595310000000000000e+05
1.163000000000000000e+03,2.850600000000000000e+05
1.164000000000000000e+03,0.000000000000000000e+00
1.165000000000000000e+03,3.795780000000000000e+05
1.166000000000000000e+03,3.202310000000000000e+05
1.167000000000000000e+03,2.314060000000000000e+05
1.168000000000000000e+03,0.000000000000000000e+00
1.169000000000000000e+03,0.000000000000000000e+00
1.170000000000000000e+03,6.887270000000000000e+05
1.171000000000000000e+03,3.096760000000000000e+05
1.172000000000000000e+03,2.024270000000000000e+05
1.173000000000000000e+03,0.000000000000000000e+00
1.174000000000000000e+03,5.504790000000000000e+05
1.175000000000000000e+03,3.912890000000000000e+05
1.176000000000000000e+03,5.727960000000000000e+05
1.177000000000000000e+03,0.000000000000000000e+00
1.178000000000000000e+03,5.173060000000000000e+05
1.179000000000000000e+03,3.554840000000000000e+05
1.180000000000000000e+03,4.077160000000000000e+05
1.181000000000000000e+03,0.000000000000000000e+00
1.182000000000000000e+03,0.000000000000000000e+00
1.183000000000000000e+03,0.000000000000000000e+00
1.184000000000000000e+03,0.000000000000000000e+00
1.185000000000000000e+03,0.000000000000000000e+00
1.186000000000000000e+03,0.000000000000000000e+00
1.187000000000000000e+03,3.866790000000000000e+05
1.188000000000000000e+03,3.086700000000000000e+04
1.189000000000000000e+03,0.000000000000000000e+00
1.190000000000000000e+03,0.000000000000000000e+00
1.191000000000000000e+03,0.000000000000000000e+00
1.192000000000000000e+03,0.000000000000000000e+00
1.193000000000000000e+03,0.000000000000000000e+00
1.194000000000000000e+03,0.000000000000000000e+00
1.195000000000000000e+03,1.484710000000000000e+05
1.196000000000000000e+03,4.780600000000000000e+04
1.197000000000000000e+03,3.845980000000000000e+05
1.198000000000000000e+03,0.000000000000000000e+00
1.199000000000000000e+03,3.377470000000000000e+05
1.200000000000000000e+03,1.078220000000000000e+05
1.201000000000000000e+03,2.102860000000000000e+05
1.202000000000000000e+03,0.000000000000000000e+00
1.203000000000000000e+03,1.901980000000000000e+05
1.204000000000000000e+03,1.700790000000000000e+05
1.205000000000000000e+03,1.305300000000000000e+05
1.206000000000000000e+03,0.000000000000000000e+00
1.207000000000000000e+03,0.000000000000000000e+00
1.208000000000000000e+03,3.601050000000000000e+05
1.209000000000000000e+03,1.523390000000000000e+05
1.210000000000000000e+03,6.252230000000000000e+05
1.211000000000000000e+03,0.000000000000000000e+00
1.212000000000000000e+03,6.611240000000000000e+05
1.213000000000000000e+03,2.360260000000000000e+05
1.214000000000000000e+03,3.979370000000000000e+05
1.215000000000000000e+03,7.156560000000000000e+05
1.216000000000000000e+03,0.000000000000000000e+00
1.217000000000000000e+03,3.955250000000000000e+05
1.218000000000000000e+03,0.000000000000000000e+00
1.219000000000000000e+03,0.000000000000000000e+00
1.220000000000000000e+03,1.237116000000000000e+06
1.221000000000000000e+03,0.000000000000000000e+00
1.222000000000000000e+03,3.673390000000000000e+05
1.223000000000000000e+03,2.306730000000000000e+05
1.224000000000000000e+03,1.916910000000000000e+05
1.225000000000000000e+03,2.230820000000000000e+05
1.226000000000000000e+03,1.644600000000000000e+05
1.227000000000000000e+03,1.290282000000000000e+06
1.228000000000000000e+03,2.422940000000000000e+05
1.229000000000000000e+03,0.000000000000000000e+00
1.230000000000000000e+03,8.245200000000000000e+05
1.231000000000000000e+03,2.202160000000000000e+05
1.232000000000000000e+03,4.102560000000000000e+05
1.233000000000000000e+03,2.927840000000000000e+05
1.234000000000000000e+03,1.408052000000000000e+06
1.235000000000000000e+03,3.965770000000000000e+05
1.236000000000000000e+03,0.000000000000000000e+00
1.237000000000000000e+03,1.061360000000000000e+05
1.238000000000000000e+03,2.752710000000000000e+05
1.239000000000000000e+03,0.000000000000000000e+00
1.240000000000000000e+03,0.000000000000000000e+00
1.241000000000000000e+03,6.181400000000000000e+05
1.242000000000000000e+03,4.623280000000000000e+05
1.243000000000000000e+03,6.395950000000000000e+05
1.244000000000000000e+03,7.436190000000000000e+05
1.245000000000000000e+03,0.000000000000000000e+00
1.246000000000000000e+03,2.791220000000000000e+05
1.247000000000000000e+03,2.341650000000000000e+05
1.248000000000000000e+03,6.011460000000000000e+05
1.249000000000000000e+03,0.000000000000000000e+00
1.250000000000000000e+03,0.000000000000000000e+00
1.251000000000000000e+03,0.000000000000000000e+00
1.252000000000000000e+03,0.000000000000000000e+00
1.253000000000000000e+03,0.000000000000000000e+00
1.254000000000000000e+03,0.000000000000000000e+00
1.255000000000000000e+03,3.734500000000000000e+04
1.256000000000000000e+03,1.516660000000000000e+05
1.257000000000000000e+03,9.677100000000000000e+04
1.258000000000000000e+03,0.000000000000000000e+00
1.259000000000000000e+03,2.399990000000000000e+05
1.260000000000000000e+03,2.521670000000000000e+05
1.261000000000000000e+03,1.485340000000000000e+05
1.262000000000000000e+03,2.166800000000000000e+05
1.263000000000000000e+03,1.222910000000000000e+05
1.264000000000000000e+03,3.110860000000000000e+05
1.265000000000000000e+03,3.236980000000000000e+05
1.266000000000000000e+03,0.000000000000000000e+00
1.267000000000000000e+03,1.717082000000000000e+06
1.268000000000000000e+03,0.000000000000000000e+00
1.269000000000000000e+03,0.000000000000000000e+00
1.270000000000000000e+03,2.793510000000000000e+05
1.271000000000000000e+03,1.256590000000000000e+05
1.272000000000000000e+03,1.510170000000000000e+05
1.273000000000000000e+03,0.000000000000000000e+00
1.274000000000000000e+03,4.131350000000000000e+05
1.275000000000000000e+03,7.848700000000000000e+04
1.276000000000000000e+03,1.617970000000000000e+05
1.277000000000000000e+03,2.651010000000000000e+05
1.278000000000000000e+03,1.889030000000000000e+05
1.279000000000000000e+03,1.012730000000000000e+05
1.280000000000000000e+03,0.000000000000000000e+00
1.281000000000000000e+03,0.000000000000000000e+00
1.282000000000000000e+03,2.745450000000000000e+05
1.283000000000000000e+03,5.561310000000000000e+05
1.284000000000000000e+03,2.029540000000000000e+05
1.285000000000000000e+03,1.510580000000000000e+05
1.286000000000000000e+03,2.291770000000000000e+05
1.287000000000000000e+03,0.000000000000000000e+00
1.288000000000000000e+03,2.027900000000000000e+04
1.289000000000000000e+03,1.621990000000000000e+05
1.290000000000000000e+03,3.472260000000000000e+05
1.291000000000000000e+03,0.000000000000000000e+00
1.292000000000000000e+03,3.121400000000000000e+04
1.293000000000000000e+03,2.901380000000000000e+05
1.294000000000000000e+03,4.831000000000000000e+04
1.295000000000000000e+03,9.957000000000000000e+04
1.296000000000000000e+03,2.423490000000000000e+05
1.297000000000000000e+03,0.000000000000000000e+00
1.298000000000000000e+03,8.691800000000000000e+04
1.299000000000000000e+03,2.840080000000000000e+05
1.300000000000000000e+03,0.000000000000000000e+00
1.301000000000000000e+03,0.000000000000000000e+00
1.302000000000000000e+03,0.000000000000000000e+00
1.303000000000000000e+03,0.000000000000000000e+00
1.304000000000000000e+03,0.000000000000000000e+00
1.305000000000000000e+03,0.000000000000000000e+00
1.306000000000000000e+03,7.157200000000000000e+05
1.307000000000000000e+03,3.857570000000000000e+05
1.308000000000000000e+03,5.954500000000000000e+05
1.309000000000000000e+03,4.530100000000000000e+05
1.310000000000000000e+03,3.695080000000000000e+05
1.311000000000000000e+03,0.000000000000000000e+00
1.312000000000000000e+03,1.708355000000000000e+06
1.313000000000000000e+03,6.121250000000000000e+05
1.314000000000000000e+03,7.909780000000000000e+05
1.315000000000000000e+03,7.835200000000000000e+05
1.316000000000000000e+03,3.409660000000000000e+05
1.317000000000000000e+03,3.287410000000000000e+05
1.318000000000000000e+03,3.829680000000000000e+05
1.319000000000000000e+03,3.100220000000000000e+05
1.320000000000000000e+03,0.000000000000000000e+00
1.321000000000000000e+03,0.000000000000000000e+00
1.322000000000000000e+03,7.474270000000000000e+05
1.323000000000000000e+03,6.993570000000000000e+05
1.324000000000000000e+03,4.508780000000000000e+05
1.325000000000000000e+03,5.247440000000000000e+05
1.326000000000000000e+03,3.322720000000000000e+05
1.327000000000000000e+03,5.483780000000000000e+05
1.328000000000000000e+03,0.000000000000000000e+00
1.329000000000000000e+03,5.243510000000000000e+05
1.330000000000000000e+03,6.617950000000000000e+05
1.331000000000000000e+03,6.293320000000000000e+05
1.332000000000000000e+03,4.412630000000000000e+05
1.333000000000000000e+03,4.755460000000000000e+05
1.334000000000000000e+03,7.554420000000000000e+05
1.335000000000000000e+03,6.993970000000000000e+05
1.336000000000000000e+03,3.893530000000000000e+05
1.337000000000000000e+03,0.000000000000000000e+00
1.338000000000000000e+03,0.000000000000000000e+00
1.339000000000000000e+03,3.065380000000000000e+05
1.340000000000000000e+03,6.395400000000000000e+05
1.341000000000000000e+03,7.141870000000000000e+05
1.342000000000000000e+03,4.892190000000000000e+05
1.343000000000000000e+03,0.000000000000000000e+00
1.344000000000000000e+03,4.750250000000000000e+05
1.345000000000000000e+03,3.901540000000000000e+05
1.346000000000000000e+03,6.168260000000000000e+05
1.347000000000000000e+03,6.018440000000000000e+05
1.348000000000000000e+03,0.000000000000000000e+00
1.349000000000000000e+03,7.737090000000000000e+05
1.350000000000000000e+03,4.897530000000000000e+05
1.351000000000000000e+03,0.000000000000000000e+00
1.352000000000000000e+03,5.053010000000000000e+05
1.353000000000000000e+03,3.975730000000000000e+05
1.354000000000000000e+03,2.694910000000000000e+05
1.355000000000000000e+03,0.000000000000000000e+00
1.356000000000000000e+03,0.000000000000000000e+00
1.357000000000000000e+03,4.076040000000000000e+05
1.358000000000000000e+03,6.535240000000000000e+05
1.359000000000000000e+03,5.435030000000000000e+05
1.360000000000000000e+03,6.651810000000000000e+05
1.361000000000000000e+03,5.476500000000000000e+05
1.362000000000000000e+03,6.132350000000000000e+05
1.363000000000000000e+03,0.000000000000000000e+00
1.364000000000000000e+03,4.064170000000000000e+05
1.365000000000000000e+03,3.544650000000000000e+05
1.366000000000000000e+03,4.293510000000000000e+05
1.367000000000000000e+03,5.055880000000000000e+05
1.368000000000000000e+03,0.000000000000000000e+00
1.369000000000000000e+03,3.821740000000000000e+05
1.370000000000000000e+03,6.282460000000000000e+05
1.371000000000000000e+03,0.000000000000000000e+00
1.372000000000000000e+03,0.000000000000000000e+00
1.373000000000000000e+03,6.275460000000000000e+05
1.374000000000000000e+03,5.675690000000000000e+05
1.375000000000000000e+03,4.483800000000000000e+05
1.376000000000000000e+03,6.653960000000000000e+05
1.377000000000000000e+03,5.679590000000000000e+05
1.378000000000000000e+03,0.000000000000000000e+00
1.379000000000000000e+03,3.751940000000000000e+05
1.380000000000000000e+03,5.943460000000000000e+05
1.381000000000000000e+03,0.000000000000000000e+00
1.382000000000000000e+03,0.000000000000000000e+00
1.383000000000000000e+03,7.693480000000000000e+05
1.384000000000000000e+03,3.887300000000000000e+05
1.385000000000000000e+03,3.650590000000000000e+05
1.386000000000000000e+03,1.873320000000000000e+05
1.387000000000000000e+03,3.639280000000000000e+05
1.388000000000000000e+03,0.000000000000000000e+00
1.389000000000000000e+03,5.287370000000000000e+05
1.390000000000000000e+03,6.141490000000000000e+05
1.391000000000000000e+03,2.842740000000000000e+05
1.392000000000000000e+03,0.000000000000000000e+00
1.393000000000000000e+03,7.368310000000000000e+05
1.394000000000000000e+03,5.436990000000000000e+05
1.395000000000000000e+03,3.279590000000000000e+05
1.396000000000000000e+03,2.201320000000000000e+05
1.397000000000000000e+03,4.244250000000000000e+05
1.398000000000000000e+03,0.000000000000000000e+00
1.399000000000000000e+03,0.000000000000000000e+00
1.400000000000000000e+03,0.000000000000000000e+00
1.401000000000000000e+03,0.000000000000000000e+00
1.402000000000000000e+03,0.000000000000000000e+00
1.403000000000000000e+03,0.000000000000000000e+00
1.404000000000000000e+03,2.429690000000000000e+05
1.405000000000000000e+03,4.136780000000000000e+05
1.406000000000000000e+03,4.269120000000000000e+05
1.407000000000000000e+03,1.761534000000000000e+06
1.408000000000000000e+03,9.234200000000000000e+04
1.409000000000000000e+03,4.331100000000000000e+05
1.410000000000000000e+03,2.017550000000000000e+05
1.411000000000000000e+03,1.149220000000000000e+05
1.412000000000000000e+03,0.000000000000000000e+00
1.413000000000000000e+03,4.461400000000000000e+05
1.414000000000000000e+03,0.000000000000000000e+00
1.415000000000000000e+03,3.656160000000000000e+05
1.416000000000000000e+03,3.717040000000000000e+05
1.417000000000000000e+03,4.548100000000000000e+05
1.418000000000000000e+03,2.955460000000000000e+05
1.419000000000000000e+03,2.661470000000000000e+05
1.420000000000000000e+03,8.697100000000000000e+04
1.421000000000000000e+03,2.451520000000000000e+05
1.422000000000000000e+03,2.302230000000000000e+05
1.423000000000000000e+03,0.000000000000000000e+00
1.424000000000000000e+03,2.827047000000000000e+06
1.425000000000000000e+03,0.000000000000000000e+00
1.426000000000000000e+03,9.847600000000000000e+04
1.427000000000000000e+03,1.254400000000000000e+05
1.428000000000000000e+03,2.498890000000000000e+05
1.429000000000000000e+03,1.158380000000000000e+05
1.430000000000000000e+03,1.647420000000000000e+05
1.431000000000000000e+03,0.000000000000000000e+00
1.432000000000000000e+03,0.000000000000000000e+00
1.433000000000000000e+03,2.471940000000000000e+05
1.434000000000000000e+03,0.000000000000000000e+00
1.435000000000000000e+03,0.000000000000000000e+00
1.436000000000000000e+03,2.642360000000000000e+05
1.437000000000000000e+03,0.000000000000000000e+00
1.438000000000000000e+03,0.000000000000000000e+00
1.439000000000000000e+03,0.000000000000000000e+00
1.440000000000000000e+03,0.000000000000000000e+00
1.441000000000000000e+03,0.000000000000000000e+00
1.442000000000000000e+03,0.000000000000000000e+00
1.443000000000000000e+03,5.756070000000000000e+05
1.444000000000000000e+03,2.847800000000000000e+05
1.445000000000000000e+03,7.012620000000000000e+05
1.446000000000000000e+03,4.739120000000000000e+05
1.447000000000000000e+03,3.421250000000000000e+05
1.448000000000000000e+03,2.211880000000000000e+05
1.449000000000000000e+03,0.000000000000000000e+00
1.450000000000000000e+03,3.384130000000000000e+05
1.451000000000000000e+03,5.519950000000000000e+05
1.452000000000000000e+03,2.090690000000000000e+05
1.453000000000000000e+03,3.110300000000000000e+05
1.454000000000000000e+03,5.489810000000000000e+05
1.455000000000000000e+03,4.010880000000000000e+05
1.456000000000000000e+03,0.000000000000000000e+00
1.457000000000000000e+03,0.000000000000000000e+00
1.458000000000000000e+03,6.104490000000000000e+05
1.459000000000000000e+03,4.056540000000000000e+05
1.460000000000000000e+03,7.859180000000000000e+05
1.461000000000000000e+03,4.648080000000000000e+05
1.462000000000000000e+03,6.354270000000000000e+05
1.463000000000000000e+03,3.919450000000000000e+05
1.464000000000000000e+03,0.000000000000000000e+00
1.465000000000000000e+03,3.158030000000000000e+05
1.466000000000000000e+03,4.461780000000000000e+05
1.467000000000000000e+03,6.923990000000000000e+05
1.468000000000000000e+03,5.342610000000000000e+05
1.469000000000000000e+03,2.107200000000000000e+05
1.470000000000000000e+03,3.395860000000000000e+05
1.471000000000000000e+03,0.000000000000000000e+00
1.472000000000000000e+03,0.000000000000000000e+00
1.473000000000000000e+03,6.126140000000000000e+05
1.474000000000000000e+03,3.055180000000000000e+05
1.475000000000000000e+03,5.199290000000000000e+05
1.476000000000000000e+03,2.823690000000000000e+05
1.477000000000000000e+03,2.730650000000000000e+05
1.478000000000000000e+03,7.629780000000000000e+05
1.479000000000000000e+03,3.723230000000000000e+05
1.480000000000000000e+03,0.000000000000000000e+00
1.481000000000000000e+03,1.862018000000000000e+06
1.482000000000000000e+03,4.171250000000000000e+05
1.483000000000000000e+03,0.000000000000000000e+00
1.484000000000000000e+03,0.000000000000000000e+00
1.485000000000000000e+03,6.614230000000000000e+05
1.486000000000000000e+03,3.404170000000000000e+05
1.487000000000000000e+03,2.633410000000000000e+05
1.488000000000000000e+03,4.304300000000000000e+05
1.489000000000000000e+03,3.717450000000000000e+05
1.490000000000000000e+03,0.000000000000000000e+00
1.491000000000000000e+03,4.303730000000000000e+05
1.492000000000000000e+03,2.905440000000000000e+05
1.493000000000000000e+03,4.101780000000000000e+05
1.494000000000000000e+03,6.969910000000000000e+05
1.495000000000000000e+03,0.000000000000000000e+00
1.496000000000000000e+03,0.000000000000000000e+00
1.497000000000000000e+03,0.000000000000000000e+00
1.498000000000000000e+03,0.000000000000000000e+00
1.499000000000000000e+03,0.000000000000000000e+00
1.500000000000000000e+03,0.000000000000000000e+00
1.501000000000000000e+03,1.168150000000000000e+05
1.502000000000000000e+03,3.224500000000000000e+05
1.503000000000000000e+03,7.135100000000000000e+04
1.504000000000000000e+03,2.534380000000000000e+05
1.505000000000000000e+03,5.787900000000000000e+04
1.506000000000000000e+03,7.547400000000000000e+04
1.507000000000000000e+03,1.420180000000000000e+05
1.508000000000000000e+03,5.231600000000000000e+04
1.509000000000000000e+03,0.000000000000000000e+00
1.510000000000000000e+03,5.298180000000000000e+05
1.511000000000000000e+03,2.033410000000000000e+05
1.512000000000000000e+03,1.180530000000000000e+05
1.513000000000000000e+03,1.125420000000000000e+05
1.514000000000000000e+03,0.000000000000000000e+00
1.515000000000000000e+03,0.000000000000000000e+00
1.516000000000000000e+03,0.000000000000000000e+00
1.517000000000000000e+03,0.000000000000000000e+00
1.518000000000000000e+03,0.000000000000000000e+00
1.519000000000000000e+03,0.000000000000000000e+00
1.520000000000000000e+03,6.065360000000000000e+05
1.521000000000000000e+03,0.000000000000000000e+00
1.522000000000000000e+03,5.583950000000000000e+05
1.523000000000000000e+03,5.932300000000000000e+05
1.524000000000000000e+03,6.876310000000000000e+05
1.525000000000000000e+03,0.000000000000000000e+00
1.526000000000000000e+03,6.916980000000000000e+05
1.527000000000000000e+03,6.580290000000000000e+05
1.528000000000000000e+03,0.000000000000000000e+00
1.529000000000000000e+03,8.164410000000000000e+05
1.530000000000000000e+03,7.923540000000000000e+05
1.531000000000000000e+03,0.000000000000000000e+00
1.532000000000000000e+03,0.000000000000000000e+00
1.533000000000000000e+03,0.000000000000000000e+00
1.534000000000000000e+03,0.000000000000000000e+00
1.535000000000000000e+03,0.000000000000000000e+00
1.536000000000000000e+03,0.000000000000000000e+00
1.537000000000000000e+03,2.734880000000000000e+05
1.538000000000000000e+03,1.926860000000000000e+05
1.539000000000000000e+03,1.791840000000000000e+05
1.540000000000000000e+03,2.230620000000000000e+05
1.541000000000000000e+03,4.968380000000000000e+05
1.542000000000000000e+03,0.000000000000000000e+00
1.543000000000000000e+03,1.549056000000000000e+06
1.544000000000000000e+03,0.000000000000000000e+00
1.545000000000000000e+03,4.700460000000000000e+05
1.546000000000000000e+03,1.751700000000000000e+05
1.547000000000000000e+03,2.020650000000000000e+05
1.548000000000000000e+03,1.805240000000000000e+05
1.549000000000000000e+03,1.320180000000000000e+05
1.550000000000000000e+03,0.000000000000000000e+00
1.551000000000000000e+03,1.522750000000000000e+05
1.552000000000000000e+03,2.480340000000000000e+05
1.553000000000000000e+03,1.651810000000000000e+05
1.554000000000000000e+03,7.984700000000000000e+04
1.555000000000000000e+03,6.856700000000000000e+04
1.556000000000000000e+03,4.026410000000000000e+05
1.557000000000000000e+03,1.822280000000000000e+05
1.558000000000000000e+03,0.000000000000000000e+00
1.559000000000000000e+03,0.000000000000000000e+00
1.560000000000000000e+03,2.835400000000000000e+04
1.561000000000000000e+03,0.000000000000000000e+00
1.562000000000000000e+03,0.000000000000000000e+00
1.563000000000000000e+03,0.000000000000000000e+00
1.564000000000000000e+03,0.000000000000000000e+00
1.565000000000000000e+03,0.000000000000000000e+00
1.566000000000000000e+03,0.000000000000000000e+00
1.567000000000000000e+03,2.091471000000000000e+06
1.568000000000000000e+03,0.000000000000000000e+00
1.569000000000000000e+03,3.396170000000000000e+05
1.570000000000000000e+03,2.728580000000000000e+05
1.571000000000000000e+03,4.304170000000000000e+05
1.572000000000000000e+03,2.805510000000000000e+05
1.573000000000000000e+03,2.546540000000000000e+05
1.574000000000000000e+03,0.000000000000000000e+00
1.575000000000000000e+03,0.000000000000000000e+00
1.576000000000000000e+03,3.385380000000000000e+05
1.577000000000000000e+03,1.856770000000000000e+05
1.578000000000000000e+03,2.320260000000000000e+05
1.579000000000000000e+03,5.670700000000000000e+04
1.580000000000000000e+03,0.000000000000000000e+00
1.581000000000000000e+03,1.505180000000000000e+05
1.582000000000000000e+03,1.255393000000000000e+06
1.583000000000000000e+03,0.000000000000000000e+00
1.584000000000000000e+03,3.021150000000000000e+05
1.585000000000000000e+03,1.590211000000000000e+06
1.586000000000000000e+03,0.000000000000000000e+00
1.587000000000000000e+03,0.000000000000000000e+00
1.588000000000000000e+03,2.725920000000000000e+05
1.589000000000000000e+03,2.761100000000000000e+05
1.590000000000000000e+03,2.767290000000000000e+05
1.591000000000000000e+03,0.000000000000000000e+00
1.592000000000000000e+03,2.420490000000000000e+05
1.593000000000000000e+03,1.264050000000000000e+05
1.594000000000000000e+03,0.000000000000000000e+00
1.595000000000000000e+03,2.599180000000000000e+05
1.596000000000000000e+03,2.482940000000000000e+05
1.597000000000000000e+03,0.000000000000000000e+00
1.598000000000000000e+03,0.000000000000000000e+00
1.599000000000000000e+03,0.000000000000000000e+00
1.600000000000000000e+03,0.000000000000000000e+00
1.601000000000000000e+03,0.000000000000000000e+00
1.602000000000000000e+03,0.000000000000000000e+00
1.603000000000000000e+03,2.850130000000000000e+05
1.604000000000000000e+03,2.726390000000000000e+05
1.605000000000000000e+03,1.048670000000000000e+05
1.606000000000000000e+03,5.142920000000000000e+05
1.607000000000000000e+03,0.000000000000000000e+00
1.608000000000000000e+03,3.146680000000000000e+05
1.609000000000000000e+03,8.332910000000000000e+05
1.610000000000000000e+03,2.745490000000000000e+05
1.611000000000000000e+03,0.000000000000000000e+00
1.612000000000000000e+03,0.000000000000000000e+00
1.613000000000000000e+03,2.348100000000000000e+05
1.614000000000000000e+03,2.646110000000000000e+05
1.615000000000000000e+03,0.000000000000000000e+00
1.616000000000000000e+03,5.104600000000000000e+05
1.617000000000000000e+03,4.661880000000000000e+05
1.618000000000000000e+03,5.016950000000000000e+05
1.619000000000000000e+03,5.953870000000000000e+05
1.620000000000000000e+03,6.202530000000000000e+05
1.621000000000000000e+03,0.000000000000000000e+00
1.622000000000000000e+03,1.470950000000000000e+05
1.623000000000000000e+03,1.409040000000000000e+05
1.624000000000000000e+03,2.475120000000000000e+05
1.625000000000000000e+03,3.825560000000000000e+05
1.626000000000000000e+03,3.245910000000000000e+05
1.627000000000000000e+03,2.208370000000000000e+05
1.628000000000000000e+03,0.000000000000000000e+00
1.629000000000000000e+03,2.044180000000000000e+05
1.630000000000000000e+03,3.710530000000000000e+05
1.631000000000000000e+03,3.289630000000000000e+05
1.632000000000000000e+03,0.000000000000000000e+00
1.633000000000000000e+03,4.475660000000000000e+05
1.634000000000000000e+03,4.690260000000000000e+05
1.635000000000000000e+03,2.726620000000000000e+05
1.636000000000000000e+03,3.196360000000000000e+05
1.637000000000000000e+03,0.000000000000000000e+00
1.638000000000000000e+03,0.000000000000000000e+00
1.639000000000000000e+03,2.564640000000000000e+05
1.640000000000000000e+03,3.356790000000000000e+05
1.641000000000000000e+03,3.274680000000000000e+05
1.642000000000000000e+03,0.000000000000000000e+00
1.643000000000000000e+03,2.011390000000000000e+05
1.644000000000000000e+03,5.996760000000000000e+05
1.645000000000000000e+03,0.000000000000000000e+00
1.646000000000000000e+03,7.914690000000000000e+05
1.647000000000000000e+03,5.565490000000000000e+05
1.648000000000000000e+03,0.000000000000000000e+00
1.649000000000000000e+03,5.224240000000000000e+05
1.650000000000000000e+03,7.563740000000000000e+05
1.651000000000000000e+03,6.290940000000000000e+05
1.652000000000000000e+03,3.261890000000000000e+05
1.653000000000000000e+03,0.000000000000000000e+00
1.654000000000000000e+03,0.000000000000000000e+00
1.655000000000000000e+03,2.500780000000000000e+05
1.656000000000000000e+03,2.774520000000000000e+05
1.657000000000000000e+03,4.923140000000000000e+05
1.658000000000000000e+03,3.080150000000000000e+05
1.659000000000000000e+03,4.526400000000000000e+05
1.660000000000000000e+03,3.361070000000000000e+05
1.661000000000000000e+03,0.000000000000000000e+00
1.662000000000000000e+03,3.297100000000000000e+05
1.663000000000000000e+03,6.903460000000000000e+05
1.664000000000000000e+03,3.785700000000000000e+05
1.665000000000000000e+03,3.204870000000000000e+05
1.666000000000000000e+03,0.000000000000000000e+00
1.667000000000000000e+03,7.168360000000000000e+05
1.668000000000000000e+03,0.000000000000000000e+00
1.669000000000000000e+03,0.000000000000000000e+00
1.670000000000000000e+03,1.858520000000000000e+05
1.671000000000000000e+03,5.705390000000000000e+05
1.672000000000000000e+03,5.490480000000000000e+05
1.673000000000000000e+03,0.000000000000000000e+00
1.674000000000000000e+03,1.669070000000000000e+05
1.675000000000000000e+03,3.061010000000000000e+05
1.676000000000000000e+03,2.479540000000000000e+05
1.677000000000000000e+03,8.479690000000000000e+05
1.678000000000000000e+03,0.000000000000000000e+00
1.679000000000000000e+03,1.080931000000000000e+06
1.680000000000000000e+03,2.060350000000000000e+05
1.681000000000000000e+03,3.262580000000000000e+05
1.682000000000000000e+03,3.100570000000000000e+05
1.683000000000000000e+03,3.109220000000000000e+05
1.684000000000000000e+03,2.687900000000000000e+05
1.685000000000000000e+03,2.481700000000000000e+05
1.686000000000000000e+03,0.000000000000000000e+00
1.687000000000000000e+03,0.000000000000000000e+00
1.688000000000000000e+03,1.871330000000000000e+05
1.689000000000000000e+03,6.270780000000000000e+05
1.690000000000000000e+03,7.280240000000000000e+05
1.691000000000000000e+03,3.556220000000000000e+05
1.692000000000000000e+03,2.485150000000000000e+05
1.693000000000000000e+03,2.580410000000000000e+05
1.694000000000000000e+03,0.000000000000000000e+00
1.695000000000000000e+03,2.051640000000000000e+05
1.696000000000000000e+03,1.121781000000000000e+06
1.697000000000000000e+03,1.586910000000000000e+05
1.698000000000000000e+03,2.599140000000000000e+05
1.699000000000000000e+03,0.000000000000000000e+00
1.700000000000000000e+03,1.740050000000000000e+05
1.701000000000000000e+03,1.595140000000000000e+05
1.702000000000000000e+03,4.613020000000000000e+05
1.703000000000000000e+03,2.903420000000000000e+05
1.704000000000000000e+03,3.034550000000000000e+05
1.705000000000000000e+03,3.464290000000000000e+05
1.706000000000000000e+03,0.000000000000000000e+00
1.707000000000000000e+03,0.000000000000000000e+00
1.708000000000000000e+03,2.323320000000000000e+05
1.709000000000000000e+03,2.224770000000000000e+05
1.710000000000000000e+03,3.262450000000000000e+05
1.711000000000000000e+03,3.041910000000000000e+05
1.712000000000000000e+03,0.000000000000000000e+00
1.713000000000000000e+03,5.650490000000000000e+05
1.714000000000000000e+03,2.674840000000000000e+05
1.715000000000000000e+03,4.699690000000000000e+05
1.716000000000000000e+03,5.732660000000000000e+05
1.717000000000000000e+03,3.078170000000000000e+05
1.718000000000000000e+03,0.000000000000000000e+00
1.719000000000000000e+03,4.897840000000000000e+05
1.720000000000000000e+03,4.285140000000000000e+05
1.721000000000000000e+03,5.447050000000000000e+05
1.722000000000000000e+03,3.154430000000000000e+05
1.723000000000000000e+03,0.000000000000000000e+00
1.724000000000000000e+03,3.110970000000000000e+05
1.725000000000000000e+03,3.652730000000000000e+05
1.726000000000000000e+03,5.565020000000000000e+05
1.727000000000000000e+03,0.000000000000000000e+00
1.728000000000000000e+03,3.629950000000000000e+05
1.729000000000000000e+03,3.104030000000000000e+05
1.730000000000000000e+03,3.362410000000000000e+05
1.731000000000000000e+03,5.209710000000000000e+05
1.732000000000000000e+03,4.461960000000000000e+05
1.733000000000000000e+03,0.000000000000000000e+00
1.734000000000000000e+03,0.000000000000000000e+00
1.735000000000000000e+03,8.674250000000000000e+05
1.736000000000000000e+03,2.533090000000000000e+05
1.737000000000000000e+03,5.087390000000000000e+05
1.738000000000000000e+03,6.559690000000000000e+05
1.739000000000000000e+03,0.000000000000000000e+00
1.740000000000000000e+03,2.747600000000000000e+05
1.741000000000000000e+03,5.280170000000000000e+05
1.742000000000000000e+03,7.547430000000000000e+05
1.743000000000000000e+03,3.854320000000000000e+05
1.744000000000000000e+03,4.318160000000000000e+05
1.745000000000000000e+03,3.803480000000000000e+05
1.746000000000000000e+03,0.000000000000000000e+00
1.747000000000000000e+03,2.061270000000000000e+05
1.748000000000000000e+03,2.396850000000000000e+05
1.749000000000000000e+03,1.372160000000000000e+05
1.750000000000000000e+03,4.422880000000000000e+05
1.751000000000000000e+03,5.263720000000000000e+05
1.752000000000000000e+03,3.568090000000000000e+05
1.753000000000000000e+03,0.000000000000000000e+00
1.754000000000000000e+03,2.673420000000000000e+05
1.755000000000000000e+03,3.390480000000000000e+05
1.756000000000000000e+03,5.046900000000000000e+05
1.757000000000000000e+03,2.774840000000000000e+05
1.758000000000000000e+03,3.513920000000000000e+05
1.759000000000000000e+03,0.000000000000000000e+00
1.760000000000000000e+03,0.000000000000000000e+00
1.761000000000000000e+03,4.321910000000000000e+05
1.762000000000000000e+03,6.466040000000000000e+05
1.763000000000000000e+03,5.980730000000000000e+05
1.764000000000000000e+03,2.120950000000000000e+05
1.765000000000000000e+03,4.730210000000000000e+05
1.766000000000000000e+03,0.000000000000000000e+00
1.767000000000000000e+03,3.357180000000000000e+05
1.768000000000000000e+03,4.121200000000000000e+05
1.769000000000000000e+03,5.332690000000000000e+05
1.770000000000000000e+03,0.000000000000000000e+00
1.771000000000000000e+03,5.381000000000000000e+05
1.772000000000000000e+03,0.000000000000000000e+00
1.773000000000000000e+03,2.570470000000000000e+05
1.774000000000000000e+03,1.307840000000000000e+05
1.775000000000000000e+03,7.512300000000000000e+05
1.776000000000000000e+03,0.000000000000000000e+00
1.777000000000000000e+03,0.000000000000000000e+00
1.778000000000000000e+03,6.973500000000000000e+04
1.779000000000000000e+03,1.215230000000000000e+05
1.780000000000000000e+03,2.095120000000000000e+05
1.781000000000000000e+03,3.830820000000000000e+05
1.782000000000000000e+03,2.934000000000000000e+05
1.783000000000000000e+03,3.390960000000000000e+05
1.784000000000000000e+03,2.797940000000000000e+05
1.785000000000000000e+03,2.401410000000000000e+05
1.786000000000000000e+03,0.000000000000000000e+00
1.787000000000000000e+03,2.366500000000000000e+05
1.788000000000000000e+03,4.764010000000000000e+05
1.789000000000000000e+03,2.876140000000000000e+05
1.790000000000000000e+03,1.317310000000000000e+05
1.791000000000000000e+03,0.000000000000000000e+00
1.792000000000000000e+03,0.000000000000000000e+00
1.793000000000000000e+03,2.621490000000000000e+05
1.794000000000000000e+03,4.148850000000000000e+05
1.795000000000000000e+03,1.850120000000000000e+05
1.796000000000000000e+03,1.127550000000000000e+05
1.797000000000000000e+03,4.849390000000000000e+05
1.798000000000000000e+03,1.561200000000000000e+05
1.799000000000000000e+03,2.381310000000000000e+05
1.800000000000000000e+03,1.751560000000000000e+05
1.801000000000000000e+03,0.000000000000000000e+00
1.802000000000000000e+03,2.209110000000000000e+05
1.803000000000000000e+03,1.501080000000000000e+05
1.804000000000000000e+03,2.533030000000000000e+05
1.805000000000000000e+03,5.980540000000000000e+05
1.806000000000000000e+03,3.451110000000000000e+05
1.807000000000000000e+03,3.374100000000000000e+05
1.808000000000000000e+03,1.127000000000000000e+05
1.809000000000000000e+03,3.148560000000000000e+05
1.810000000000000000e+03,0.000000000000000000e+00
1.811000000000000000e+03,4.783180000000000000e+05
1.812000000000000000e+03,0.000000000000000000e+00
1.813000000000000000e+03,9.505800000000000000e+04
1.814000000000000000e+03,1.986740000000000000e+05
1.815000000000000000e+03,1.003380000000000000e+05
1.816000000000000000e+03,2.736600000000000000e+04
1.817000000000000000e+03,2.159300000000000000e+04
1.818000000000000000e+03,2.330700000000000000e+04
1.819000000000000000e+03,0.000000000000000000e+00
1.820000000000000000e+03,0.000000000000000000e+00
1.821000000000000000e+03,2.799280000000000000e+05
1.822000000000000000e+03,3.915080000000000000e+05
1.823000000000000000e+03,4.422530000000000000e+05
1.824000000000000000e+03,2.881860000000000000e+05
1.825000000000000000e+03,4.170600000000000000e+05
1.826000000000000000e+03,0.000000000000000000e+00
1.827000000000000000e+03,0.000000000000000000e+00
1.828000000000000000e+03,0.000000000000000000e+00
1.829000000000000000e+03,0.000000000000000000e+00
1.830000000000000000e+03,0.000000000000000000e+00
1.831000000000000000e+03,0.000000000000000000e+00
1.832000000000000000e+03,2.048440000000000000e+05
1.833000000000000000e+03,1.147310000000000000e+05
1.834000000000000000e+03,0.000000000000000000e+00
1.835000000000000000e+03,0.000000000000000000e+00
1.836000000000000000e+03,0.000000000000000000e+00
1.837000000000000000e+03,0.000000000000000000e+00
1.838000000000000000e+03,0.000000000000000000e+00
1.839000000000000000e+03,0.000000000000000000e+00
1.840000000000000000e+03,3.647500000000000000e+04
1.841000000000000000e+03,0.000000000000000000e+00
1.842000000000000000e+03,0.000000000000000000e+00
1.843000000000000000e+03,0.000000000000000000e+00
1.844000000000000000e+03,0.000000000000000000e+00
1.845000000000000000e+03,0.000000000000000000e+00
1.846000000000000000e+03,0.000000000000000000e+00
1.847000000000000000e+03,6.135450000000000000e+05
1.848000000000000000e+03,5.559920000000000000e+05
1.849000000000000000e+03,0.000000000000000000e+00
1.850000000000000000e+03,1.928230000000000000e+05
1.851000000000000000e+03,1.871150000000000000e+05
1.852000000000000000e+03,0.000000000000000000e+00
1.853000000000000000e+03,2.783530000000000000e+05
1.854000000000000000e+03,2.650660000000000000e+05
1.855000000000000000e+03,2.364080000000000000e+05
1.856000000000000000e+03,1.701360000000000000e+05
1.857000000000000000e+03,0.000000000000000000e+00
1.858000000000000000e+03,1.115400000000000000e+05
1.859000000000000000e+03,1.744510000000000000e+05
1.860000000000000000e+03,4.429420000000000000e+05
1.861000000000000000e+03,0.000000000000000000e+00
1.862000000000000000e+03,4.904220000000000000e+05
1.863000000000000000e+03,1.082620000000000000e+05
1.864000000000000000e+03,2.567140000000000000e+05
1.865000000000000000e+03,0.000000000000000000e+00
1.866000000000000000e+03,2.980340000000000000e+05
1.867000000000000000e+03,1.333060000000000000e+05
1.868000000000000000e+03,0.000000000000000000e+00
1.869000000000000000e+03,2.383920000000000000e+05
1.870000000000000000e+03,1.585040000000000000e+05
1.871000000000000000e+03,7.386100000000000000e+04
1.872000000000000000e+03,0.000000000000000000e+00
1.873000000000000000e+03,0.000000000000000000e+00
1.874000000000000000e+03,0.000000000000000000e+00
1.875000000000000000e+03,0.000000000000000000e+00
1.876000000000000000e+03,0.000000000000000000e+00
1.877000000000000000e+03,0.000000000000000000e+00
1.878000000000000000e+03,7.259430000000000000e+05
1.879000000000000000e+03,3.170220000000000000e+05
1.880000000000000000e+03,4.605330000000000000e+05
1.881000000000000000e+03,0.000000000000000000e+00
1.882000000000000000e+03,9.850450000000000000e+05
1.883000000000000000e+03,2.846680000000000000e+05
1.884000000000000000e+03,2.569900000000000000e+05
1.885000000000000000e+03,1.731830000000000000e+05
1.886000000000000000e+03,7.054200000000000000e+04
1.887000000000000000e+03,0.000000000000000000e+00
1.888000000000000000e+03,1.862550000000000000e+05
1.889000000000000000e+03,2.753600000000000000e+05
1.890000000000000000e+03,6.182970000000000000e+05
1.891000000000000000e+03,0.000000000000000000e+00
1.892000000000000000e+03,1.392394000000000000e+06
1.893000000000000000e+03,0.000000000000000000e+00
1.894000000000000000e+03,3.921700000000000000e+04
1.895000000000000000e+03,7.713900000000000000e+04
1.896000000000000000e+03,5.331300000000000000e+04
1.897000000000000000e+03,1.574300000000000000e+04
1.898000000000000000e+03,4.831550000000000000e+05
1.899000000000000000e+03,1.933880000000000000e+05
1.900000000000000000e+03,2.519730000000000000e+05
1.901000000000000000e+03,0.000000000000000000e+00
1.902000000000000000e+03,3.819660000000000000e+05
1.903000000000000000e+03,3.538200000000000000e+04
1.904000000000000000e+03,1.479040000000000000e+05
1.905000000000000000e+03,3.588500000000000000e+04
1.906000000000000000e+03,4.131100000000000000e+04
1.907000000000000000e+03,1.151040000000000000e+05
1.908000000000000000e+03,0.000000000000000000e+00
1.909000000000000000e+03,3.369430000000000000e+05
